<?xml version="1.0" encoding="UTF-8" standalone="no"?>
<!-- Created with Inkscape (http://www.inkscape.org/) -->

<svg
   xmlns:dc="http://purl.org/dc/elements/1.1/"
   xmlns:cc="http://creativecommons.org/ns#"
   xmlns:rdf="http://www.w3.org/1999/02/22-rdf-syntax-ns#"
   xmlns:svg="http://www.w3.org/2000/svg"
   xmlns="http://www.w3.org/2000/svg"
   xmlns:sodipodi="http://sodipodi.sourceforge.net/DTD/sodipodi-0.dtd"
   xmlns:inkscape="http://www.inkscape.org/namespaces/inkscape"
   width="800"
   height="600"
   id="svg3352"
   version="1.1"
   inkscape:version="0.91 r13725"
   viewBox="0 0 800 600"
   sodipodi:docname="newton-gravity-is-instant.svg">
  <defs
     id="defs3354" />
  <sodipodi:namedview
     id="base"
     pagecolor="#ffffff"
     bordercolor="#666666"
     borderopacity="1.0"
     inkscape:pageopacity="0.0"
     inkscape:pageshadow="2"
     inkscape:zoom="0.6"
     inkscape:cx="908.31526"
     inkscape:cy="294.59433"
     inkscape:current-layer="layer2"
     inkscape:document-units="px"
     showgrid="false"
     inkscape:window-width="1366"
     inkscape:window-height="713"
     inkscape:window-x="0"
     inkscape:window-y="0"
     inkscape:window-maximized="1"
     showguides="true"
     inkscape:guide-bbox="true">
    <sodipodi:guide
       position="0,0"
       orientation="0,800"
       id="guide4321" />
    <sodipodi:guide
       position="800,0"
       orientation="-600,0"
       id="guide4323" />
    <sodipodi:guide
       position="800,600"
       orientation="0,-800"
       id="guide4325" />
    <sodipodi:guide
       position="0,600"
       orientation="600,0"
       id="guide4327" />
    <sodipodi:guide
       position="50,0"
       orientation="1,0"
       id="guide4329"
       inkscape:label=""
       inkscape:color="rgb(0,0,255)" />
    <sodipodi:guide
       position="750,0"
       orientation="1,0"
       id="guide4331"
       inkscape:label=""
       inkscape:color="rgb(0,0,255)" />
    <sodipodi:guide
       position="0,50"
       orientation="0,1"
       id="guide4333"
       inkscape:label=""
       inkscape:color="rgb(0,0,255)" />
    <sodipodi:guide
       position="0,550"
       orientation="0,1"
       id="guide4335"
       inkscape:label=""
       inkscape:color="rgb(0,0,255)" />
  </sodipodi:namedview>
  <metadata
     id="metadata3357">
    <rdf:RDF>
      <cc:Work
         rdf:about="">
        <dc:format>image/svg+xml</dc:format>
        <dc:type
           rdf:resource="http://purl.org/dc/dcmitype/StillImage" />
        <dc:title></dc:title>
      </cc:Work>
    </rdf:RDF>
  </metadata>
  <g
     id="layer1"
     inkscape:label="bg"
     inkscape:groupmode="layer"
     sodipodi:insensitive="true">
    <rect
       style="color:#000000;clip-rule:nonzero;display:inline;overflow:visible;visibility:visible;opacity:1;isolation:auto;mix-blend-mode:normal;color-interpolation:sRGB;color-interpolation-filters:linearRGB;solid-color:#000000;solid-opacity:1;fill:#222222;fill-opacity:1;fill-rule:nonzero;stroke:none;stroke-width:5;stroke-linecap:butt;stroke-linejoin:miter;stroke-miterlimit:4;stroke-dasharray:none;stroke-dashoffset:0;stroke-opacity:1;color-rendering:auto;image-rendering:auto;shape-rendering:auto;text-rendering:auto;enable-background:accumulate"
       id="rect3360"
       width="800"
       height="600"
       x="0"
       y="-5.6843419e-14" />
  </g>
  <g
     inkscape:groupmode="layer"
     id="layer2"
     inkscape:label="Contents"
     sodipodi:insensitive="true">
    <text
       xml:space="preserve"
       style="color:#000000;font-style:normal;font-variant:normal;font-weight:normal;font-stretch:normal;font-size:50px;line-height:125%;font-family:'Fira Sans';-inkscape-font-specification:'Fira Sans';text-align:center;writing-mode:lr-tb;text-anchor:middle;clip-rule:nonzero;display:inline;overflow:visible;visibility:visible;opacity:1;isolation:auto;mix-blend-mode:normal;color-interpolation:sRGB;color-interpolation-filters:linearRGB;solid-color:#000000;solid-opacity:1;fill:#ffffff;fill-opacity:1;fill-rule:nonzero;stroke:none;stroke-width:5;stroke-linecap:butt;stroke-linejoin:miter;stroke-miterlimit:4;stroke-dasharray:none;stroke-dashoffset:0;stroke-opacity:1;color-rendering:auto;image-rendering:auto;shape-rendering:auto;text-rendering:auto;enable-background:accumulate"
       x="401.12305"
       y="89"
       id="text4312"
       sodipodi:linespacing="125%"><tspan
         sodipodi:role="line"
         id="tspan4314"
         x="401.12305"
         y="89">A gravidade Newtoniana</tspan><tspan
         sodipodi:role="line"
         x="401.12305"
         y="151.5"
         id="tspan4318">tem ação <tspan
   style="fill:#ff0000"
   id="tspan4316">instantânea</tspan></tspan></text>
    <g
       id="g4373">
      <g
         transform="matrix(0.98082499,0,0,0.98082379,31.492578,134.73425)"
         id="g3496"
         style="fill:#ffffff">
        <g
           id="g3426"
           transform="matrix(3.0980311,0,0,3.0980311,-384.38141,-806.90759)"
           style="fill:#ffffff">
          <path
             sodipodi:nodetypes="cscsscsscssscccsscccsccsscssscscssssscsccccscscscsssccsssssscssssssccsccsccsssssssssscssssssssscssccsscsccsccscsssccsssscsccsccssscsssssssssccscccsccssssscsscsccssccccccccscccccssccssssssssscssccsscssccsssscccccssscsssssssscsssccsssssssscsssssssccsssscssscscscsssccscssscccccccsccssscccccscscssscssssssccccccscsccsscccsccsssscssssscscsssssssscsscssscsscsssssccssscscsccscsssccsssssssssssscscscsscsccccssscscsccscscsscssssssscsccccssssssssssssssssss"
             inkscape:connector-curvature="0"
             id="path3401"
             d="M 184.71684,396.11968 C 166.87,392.30137 152.62242,378.80432 147.8581,361.20254 c -1.65635,-6.1194 -1.65236,-17.88221 0.008,-23.97397 5.81889,-21.34741 24.79926,-35.98525 46.62025,-35.95396 12.58182,0.018 24.30039,4.8494 33.3688,13.75735 2.06703,2.03046 3.90605,3.45258 4.08671,3.16027 0.33854,-0.54778 5.27788,-0.29374 5.87372,0.30209 0.18299,0.18299 -0.18281,1.67985 -0.81289,3.32635 l -1.14561,2.99364 1.55339,3.27698 c 4.79876,10.12335 6.09512,22.32129 3.49064,32.84487 -1.33527,5.39524 -6.12518,14.6049 -9.95567,19.14194 -11.27359,13.3531 -29.39824,19.64243 -46.22874,16.04158 z m 22.36106,-1.59879 c 7.47224,-2.16999 15.07647,-6.64803 20.5247,-12.08674 13.76117,-13.73711 17.54866,-35.14367 9.39836,-53.11877 l -1.64995,-3.63891 -2.27544,0.14148 c -1.25149,0.0778 -2.67014,-0.0362 -3.15256,-0.25326 -0.63585,-0.28616 -5.17882,2.64108 -16.5154,10.64162 l -15.63827,11.03636 -0.16278,4.56361 c -0.0895,2.50997 -0.40881,4.86004 -0.70951,5.22236 -0.64959,0.78271 -3.14317,1.12786 -10.25683,1.41967 -3.21344,0.13183 -4.94064,0.0325 -4.42755,-0.25465 0.4627,-0.25894 3.43302,-0.55266 6.60071,-0.65272 6.31078,-0.19933 7.39461,-0.46457 7.77041,-1.90164 0.19227,-0.73527 0.0111,-0.8983 -0.77099,-0.69378 -0.57964,0.15158 -1.30017,-0.10124 -1.66392,-0.58383 -0.51896,-0.68849 -1.04632,-0.75806 -2.75914,-0.36399 -1.44775,0.33309 -2.23116,0.30341 -2.47667,-0.0938 -0.21134,-0.34196 -1.03889,-0.44507 -2.01128,-0.25059 -0.94399,0.1888 -1.65219,0.10778 -1.65219,-0.189 0,-1.28265 -1.04287,-0.33171 -1.62131,1.4784 -0.88592,2.77232 -1.57522,3.36254 -1.57522,1.34882 0,-0.91368 -0.16031,-2.07899 -0.35624,-2.58958 -0.28184,-0.73448 -0.13351,-0.8701 0.71034,-0.64942 0.68162,0.17824 1.06658,0.0169 1.06658,-0.44712 0,-0.39933 -0.25972,-0.72971 -0.57715,-0.7342 -0.31744,-0.004 -0.21754,-0.24055 0.22198,-0.5246 0.47445,-0.30661 0.54266,-0.51975 0.16787,-0.5246 -0.34719,-0.004 -1.30615,-0.2743 -2.13102,-0.59958 -1.39352,-0.54954 -1.42428,-0.62236 -0.43425,-1.02807 1.0339,-0.42368 1.03164,-0.43774 -0.0762,-0.47408 -1.12271,-0.0368 -2.02049,-1.22608 -1.39657,-1.85 0.49276,-0.49276 5.90282,-0.37586 6.21816,0.13436 0.15392,0.24906 -0.9707,0.37941 -2.49915,0.28968 l -2.779,-0.16315 2.39739,0.60139 c 2.52138,0.6325 3.47234,1.42033 2.67584,2.21683 -0.27992,0.27992 -0.18056,0.77208 0.241,1.19364 0.39452,0.39452 0.79865,0.94662 0.89807,1.22689 0.0994,0.28026 1.37945,0.66206 2.84453,0.84844 1.96487,0.24994 2.94334,0.12815 3.72928,-0.4642 0.85408,-0.64371 0.93337,-0.93704 0.39957,-1.47823 -1.24969,-1.26701 -0.66758,-2.34176 2.0611,-3.80544 1.49987,-0.80454 9.53114,-6.29782 17.84728,-12.20728 10.81119,-7.68245 15.12025,-11.03556 15.12025,-11.76587 0,-0.56176 0.51114,-1.73922 1.13587,-2.61657 l 1.13587,-1.59518 -3.40008,-3.46251 c -5.58141,-5.6839 -11.16198,-9.09144 -18.84997,-11.50992 -20.13235,-6.33323 -41.80105,1.43465 -53.35694,19.1276 -5.64254,8.63916 -7.93544,17.0877 -7.49854,27.62951 0.14595,3.52166 0.65414,7.84146 1.12931,9.59955 4.71376,17.44069 18.46804,30.74331 35.75221,34.5782 5.43587,1.20607 17.2814,0.82544 22.62743,-0.72709 z m -26.74934,-38.01122 c 0.28624,-4.63738 0.56736,-5.00159 0.61694,-0.79931 0.0231,1.96056 -0.15203,3.6846 -0.38924,3.83121 -0.23722,0.14661 -0.33968,-1.21775 -0.2277,-3.0319 z m -2.25082,0.56402 0.29929,-2.26421 -0.80003,1.73145 c -0.99548,2.15443 -2.17384,2.33992 -1.69218,0.26638 0.24972,-1.07506 0.19851,-1.25234 -0.19237,-0.66594 -0.42627,0.63949 -0.73512,0.67372 -1.54608,0.17137 -0.73769,-0.45697 -1.17301,-0.46815 -1.60007,-0.0411 -0.77533,0.77533 -2.34305,0.0286 -5.27718,-2.51359 -1.70987,-1.48147 -2.26421,-2.34698 -2.26421,-3.53523 0,-0.90718 0.3384,-1.70332 0.79914,-1.88012 0.43952,-0.16866 0.79913,-0.89407 0.79913,-1.61201 0,-2.22539 1.17805,-6.11585 1.9405,-6.40843 0.39911,-0.15315 1.31747,-0.12992 2.04079,0.0516 1.16042,0.29125 1.25429,0.49011 0.79794,1.6904 -0.28446,0.74817 -0.51719,1.67107 -0.51719,2.05088 0,1.13715 2.7397,0.31501 4.73848,-1.42194 1.95861,-1.70205 4.10722,-1.75624 5.71921,-0.14426 0.44345,0.44345 1.02888,0.80627 1.30097,0.80627 0.27208,0 0.4947,0.4595 0.4947,1.02111 0,0.56161 0.29967,1.12852 0.66594,1.25979 0.36627,0.13127 -0.71288,0.33105 -2.39812,0.44396 -1.68524,0.11291 -3.06374,0.0255 -3.06334,-0.19428 4e-4,-0.21976 0.42027,-0.42346 0.93305,-0.45267 0.61037,-0.0348 0.47239,-0.19341 -0.39957,-0.45942 -1.42489,-0.43469 -0.99085,-0.78643 1.59826,-1.29522 0.73254,-0.14395 0.14722,-0.17998 -1.30071,-0.0801 l -2.63261,0.18167 1.30072,-0.99972 c 1.63325,-1.25531 0.90905,-1.32435 -1.14767,-0.10942 -1.64155,0.96969 -1.89014,1.47499 -0.99714,2.0269 0.3485,0.21538 0.15323,0.98221 -0.53275,2.09215 -0.59559,0.96369 -1.07981,2.56295 -1.07604,3.55391 l 0.007,1.80176 1.28301,-2.66377 c 0.70566,-1.46508 1.30192,-2.37162 1.32503,-2.01455 0.0254,0.39173 0.41179,0.51064 0.97434,0.29982 0.79774,-0.29897 0.83246,-0.2265 0.24051,0.50204 -0.48489,0.59678 -0.51825,0.95872 -0.11152,1.2101 0.31917,0.19725 0.42499,0.84797 0.23517,1.44603 -0.19068,0.60078 -0.12939,0.95406 0.13696,0.78945 1.26058,-0.77908 1.59981,0.50235 1.06604,4.02698 -0.58568,3.86741 -1.64498,5.09719 -1.14726,1.33189 z m -7.52244,-2.55278 c -2.15641,-1.09941 -3.51936,-2.72274 -4.00162,-4.76611 -0.27025,-1.14508 -0.37466,-1.20373 -0.72294,-0.40606 -0.22389,0.51278 -0.27542,1.2754 -0.11452,1.6947 0.43725,1.13945 5.70207,5.14826 6.28672,4.78692 0.27865,-0.17221 -0.37279,-0.76147 -1.44764,-1.30945 z m 6.53415,0.45505 c -0.17007,-0.42499 -0.29631,-0.29875 -0.32187,0.32188 -0.0231,0.56161 0.10278,0.87627 0.27981,0.69924 0.17703,-0.17703 0.19596,-0.63654 0.0421,-1.02112 z m -4.65873,-1.62009 c -2.19466,-2.40284 -2.47795,-3.60994 -1.10763,-4.71957 1.51689,-1.2283 2.46663,-3.68279 1.42502,-3.68279 -0.41497,0 -0.90267,0.23974 -1.08376,0.53276 -0.64902,1.05014 -1.33189,0.50385 -1.33189,-1.06551 0,-1.33563 -0.21189,-1.59827 -1.28948,-1.59827 -1.19167,0 -1.31716,0.25842 -1.6543,3.40664 -0.46455,4.33782 0.28228,5.96959 3.47654,7.59602 3.19807,1.62837 3.4205,1.56169 1.5655,-0.46928 z m 6.2459,-0.54422 c -0.14779,-0.36627 -0.26872,-0.0666 -0.26872,0.66594 0,0.73254 0.12093,1.03221 0.26872,0.66595 0.14779,-0.36627 0.14779,-0.96562 0,-1.33189 z m -1.05441,0.0333 c -0.17007,-0.425 -0.29631,-0.29876 -0.32188,0.32187 -0.0231,0.56161 0.10279,0.87627 0.27982,0.69924 0.17703,-0.17703 0.19595,-0.63653 0.0421,-1.02111 z m -0.40954,-1.76476 c 0.0161,-0.29301 -0.20311,-0.17314 -0.48715,0.26638 -0.28404,0.43952 -0.50326,1.15874 -0.48715,1.59827 0.0309,0.8438 0.91883,-0.85549 0.9743,-1.86465 z m -4.74919,-1.39476 c 0,-0.58604 -0.23974,-0.91735 -0.53275,-0.73626 -0.29302,0.1811 -0.53276,0.80874 -0.53276,1.39477 0,0.58603 0.23974,0.91735 0.53276,0.73625 0.29301,-0.18109 0.53275,-0.80873 0.53275,-1.39476 z m 2.98103,-4.28148 c 0.23552,-0.38108 0.14614,-0.47045 -0.23494,-0.23493 -0.33829,0.20907 -0.61507,0.0863 -0.61507,-0.27286 0,-0.35914 -0.14388,-0.50911 -0.31972,-0.33326 -0.30476,0.30475 0.15868,1.45612 0.5861,1.45612 0.11192,0 0.37455,-0.27678 0.58363,-0.61507 z m -4.75139,-3.46389 c -0.45488,-0.45489 -2.49168,-0.63397 -2.49168,-0.21908 0,0.23956 0.60934,0.43557 1.35409,0.43557 0.74474,0 1.25666,-0.0974 1.13759,-0.21649 z m 12.25664,12.50315 c -0.17007,-0.42499 -0.29631,-0.29876 -0.32188,0.32187 -0.0231,0.56161 0.10279,0.87627 0.27982,0.69925 0.17703,-0.17704 0.19595,-0.63654 0.0421,-1.02112 z m 13.77391,-2.0403 c 0.0109,-1.02123 0.20486,-2.15617 0.43101,-2.52207 0.22614,-0.36591 0.17142,-0.66529 -0.12159,-0.66529 -0.29302,0 -0.69102,0.25609 -0.88446,0.56908 -0.19345,0.31299 -0.69953,0.4356 -1.12463,0.27248 -0.43161,-0.16563 -0.62919,-0.064 -0.44742,0.23005 0.17902,0.28966 0.0117,0.54559 -0.37189,0.56872 -0.54054,0.0326 -0.54687,0.10274 -0.0281,0.31188 0.36809,0.1484 0.53242,0.49122 0.36517,0.76184 -0.55417,0.89667 0.35506,2.68058 1.27529,2.5021 0.61974,-0.1202 0.89277,-0.73116 0.90664,-2.02879 z m -11.47407,-0.52358 c 0,-0.29302 -0.25389,-0.53276 -0.5642,-0.53276 -0.31031,0 -0.41603,0.23974 -0.23493,0.53276 0.18109,0.29301 0.43498,0.53275 0.56419,0.53275 0.12922,0 0.23494,-0.23974 0.23494,-0.53275 z m -1.46508,-3.01661 c -0.36627,-0.14779 -0.96562,-0.14779 -1.33188,0 -0.36627,0.14779 -0.0666,0.26871 0.66594,0.26871 0.73254,0 1.03221,-0.12092 0.66594,-0.26871 z m 134.47327,-14.13703 c 0.60179,0 0.49456,0.12813 0.67565,0.42115 0.18674,0.30216 -0.26085,0.53275 -1.03406,0.53275 -0.74984,0 -1.3993,-0.23974 -1.44325,-0.53275 m -0.78087,-0.98531 c -0.0439,-0.29302 -0.61728,-0.0946 -0.64658,-0.37755 -0.0293,-0.28294 2.70373,-2.44852 6.07341,-4.81239 3.88972,-2.72869 6.14779,-4.66051 6.18449,-5.29096 0.0318,-0.54616 0.59672,-1.74982 1.25537,-2.67481 1.08355,-1.52171 1.11969,-1.76782 0.37971,-2.58549 -0.44981,-0.49703 -0.83492,-1.0835 -0.85579,-1.30326 -0.0209,-0.21976 -0.12099,-0.33963 -0.22247,-0.26638 -0.49452,0.357 -1.95811,-1.46557 -1.70551,-2.12384 0.0289,-0.0752 0.66125,0.13219 0.6184,-0.0998 -0.0588,-0.31833 -0.60285,-0.85975 -1.15964,-1.68686 -2.03785,-3.0272 -6.42943,-9.80652 -8.6824,-12.75913 -0.3937,-0.51596 -0.7221,-0.91507 -0.96122,-1.15688 -1.61506,1.34617 0,0 -1.61506,1.34617 l -1.49363,-5.46329 5.20617,2.11933 c -1.59842,1.51451 0,0 -1.59842,1.51451 0.21727,0.26476 0.51356,0.65368 0.88319,1.15567 2.09814,2.84935 6.55973,9.3414 12.35122,17.44554 0.73447,1.02776 1.06744,1.12358 2.28969,0.65889 1.71695,-0.65279 5.39421,0.61569 4.95873,1.71053 -0.14631,0.36787 -0.66827,1.66349 -1.1599,2.87917 -0.88042,2.17705 -0.87246,2.25258 0.52944,5.01908 3.80777,7.51427 5.08377,20.50518 2.9668,30.20479 -1.11104,5.09062 -4.07907,12.91115 -4.90002,12.91115 -0.26567,0 -0.48304,-0.0867 -0.48304,-0.19269 0,-0.10598 0.6881,-1.72422 1.52911,-3.59609 2.615,-5.82036 3.38365,-9.67417 3.65405,-18.32055 0.27874,-8.91302 -0.62919,-14.41845 -3.31241,-20.0855 l -1.37975,-2.91408 -2.35073,0.35675 c -1.54125,0.2339 -2.58893,0.13793 -3.04246,-0.27872 -0.54762,-0.50309 -2.06389,0.34775 -7.27807,4.08403 -4.15583,2.97791 -5.85505,4.26573 -5.97358,4.57351 m -39.21716,24.45447 c 0.15429,-0.40206 0.41361,-1.90044 0.57627,-3.32972 0.29145,-2.561 0.28805,-2.56839 -0.2342,-0.5094 -0.55255,2.17842 -1.3745,3.50463 -2.17209,3.50463 -0.25713,0 -0.46752,-0.35961 -0.46752,-0.79914 0,-0.43952 -0.35961,-0.79913 -0.79913,-0.79913 -0.43952,0 -0.79913,-0.24177 -0.79913,-0.53727 0,-0.32417 -0.40958,-0.28149 -1.03264,0.10762 -1.29952,0.81157 -2.80618,0.0765 -5.86241,-2.86022 -2.21873,-2.13195 -2.88065,-4.45904 -1.42701,-5.01686 0.41913,-0.16083 0.89055,-1.46962 1.09737,-3.04662 0.56928,-4.34077 2.25293,-6.10185 4.48273,-4.68889 0.51637,0.32721 0.57459,0.74062 0.20517,1.45692 -1.36603,2.64874 1.62395,3.20342 3.95497,0.73369 1.77595,-1.88162 3.73399,-2.07102 5.50763,-0.53275 0.6757,0.58603 1.4316,1.06551 1.67978,1.06551 0.24818,0 0.45124,0.34769 0.45124,0.77266 0,0.42496 0.41954,1.01702 0.93232,1.31568 0.69987,0.40764 0.069,0.53774 -2.53059,0.52179 -2.41728,-0.0148 -3.14117,-0.1595 -2.39739,-0.47911 1.01668,-0.43689 1.01058,-0.45958 -0.13319,-0.49531 -1.82822,-0.0571 -1.42788,-1.00853 0.53275,-1.26609 0.9523,-0.1251 0.66666,-0.16384 -0.63477,-0.0861 l -2.36623,0.14135 1.30072,-0.99972 c 1.50282,-1.15506 0.69121,-1.40412 -0.86167,-0.26444 -0.60059,0.44079 -1.03414,1.39004 -1.03414,2.26421 0,0.89485 -0.26227,1.45381 -0.64677,1.37843 -0.35573,-0.0697 -0.51919,0.20569 -0.36325,0.61206 0.15594,0.40637 0.0274,0.89712 -0.28555,1.09056 -0.31299,0.19344 -0.55855,1.35645 -0.54569,2.58447 l 0.0234,2.23277 0.67065,-1.86464 c 0.36886,-1.02556 0.97418,-2.34412 1.34516,-2.93016 0.6745,-1.0655 0.6745,-1.0655 0.43191,0 -0.13343,0.58604 -0.39827,1.54499 -0.58856,2.13102 -0.19028,0.58604 0.0657,0.28636 0.56897,-0.66594 0.50322,-0.9523 1.12533,-1.73145 1.38248,-1.73145 0.25715,0 0.31647,0.24442 0.13184,0.54317 -0.46708,0.75575 0.78011,4.33024 1.38126,3.95871 0.61754,-0.38166 0.61397,-0.24091 -0.0976,3.84537 -0.3231,1.85535 -0.82823,3.37336 -1.12251,3.37336 -0.29429,0 -0.40883,-0.32896 -0.25455,-0.73102 z m -0.8681,-3.09816 c -0.17007,-0.42499 -0.29631,-0.29876 -0.32187,0.32187 -0.0231,0.56161 0.10278,0.87627 0.27981,0.69925 0.17703,-0.17704 0.19596,-0.63654 0.042,-1.02112 z m -6.02088,-0.7156 c -2.07631,-0.91058 -4.46016,-3.6866 -4.48159,-5.21888 -0.0141,-1.00418 -0.0849,-1.04018 -0.53361,-0.27128 -0.28457,0.48759 -0.36683,1.27891 -0.1828,1.75849 0.45668,1.1901 4.94546,4.55744 6.00358,4.5037 0.47064,-0.0239 0.10813,-0.37131 -0.80558,-0.77203 z m 4.42262,-0.34991 c -0.17007,-0.42499 -0.29631,-0.29876 -0.32187,0.32187 -0.0231,0.56161 0.10278,0.87627 0.27981,0.69925 0.17703,-0.17704 0.19595,-0.63654 0.042,-1.02112 z m -1.93946,-2.16399 -0.24364,-2.79729 -0.34228,2.3974 c -0.18826,1.31857 -0.3783,2.0806 -0.42231,1.6934 -0.044,-0.3872 -0.43963,-1.06361 -0.87915,-1.50313 -1.15496,-1.15496 -1.02594,-3.42724 0.21298,-3.75123 1.1787,-0.30824 1.89788,-3.36486 0.7917,-3.36486 -0.37148,0 -0.82359,0.23974 -1.00468,0.53276 -0.64902,1.05014 -1.33189,0.50385 -1.33189,-1.06551 0,-1.23797 -0.23791,-1.59827 -1.05536,-1.59827 -1.24122,0 -1.83733,1.73245 -1.85971,5.40481 -0.0177,2.90912 1.04949,4.37831 4.24696,5.84659 1.17206,0.53821 2.13102,0.98398 2.13102,0.9906 0,0.007 -0.10964,-1.24676 -0.24364,-2.78527 z m 4.07048,1.09848 c -0.17007,-0.42499 -0.29631,-0.29876 -0.32187,0.32187 -0.0231,0.56161 0.10278,0.87627 0.27981,0.69925 0.17703,-0.17704 0.19595,-0.63654 0.042,-1.02112 z m 0.10941,-3.36302 c 0.0119,-0.29301 -0.32097,0.0666 -0.73972,0.79914 -0.41876,0.73254 -0.75163,1.81136 -0.73973,2.39739 0.0142,0.69769 0.26954,0.42182 0.73973,-0.79913 0.39493,-1.02555 0.72781,-2.10438 0.73972,-2.3974 z m -5.09743,-1.29637 c -0.49428,-0.60547 -1.33272,1.06447 -0.96725,1.92651 0.36303,0.85627 0.45351,0.81424 0.78308,-0.36376 0.20495,-0.73254 0.28782,-1.43577 0.18417,-1.56275 z m -3.10463,-6.95522 c 0.18664,-0.302 -0.0272,-0.39132 -0.50131,-0.20938 -0.92296,0.35417 -1.09183,0.73603 -0.3255,0.73603 0.27573,0 0.64779,-0.237 0.82681,-0.52665 z m 10.9334,14.18809 c -0.007,-3.1142 0.11616,-3.60539 0.83455,-3.32972 0.46349,0.17786 1.04039,0.32338 1.28201,0.32338 0.24162,0 0.33696,0.53941 0.21187,1.1987 -0.19911,1.04939 -0.17132,1.07083 0.22309,0.17213 0.4421,-1.00736 0.45783,-1.00755 0.84056,-0.0102 0.22454,0.58515 0.15105,1.09605 -0.17322,1.20414 -0.30978,0.10326 -0.56324,0.62047 -0.56324,1.14937 0,0.8735 0.52478,0.95253 5.72711,0.86242 5.46137,-0.0946 8.12451,-0.72774 8.12451,-1.93158 0,-0.28269 -0.487,-0.51399 -1.08222,-0.51399 -0.59523,0 -1.2224,-0.36526 -1.39371,-0.81168 -0.22612,-0.58928 -0.76895,-0.72669 -1.9811,-0.50148 -0.91831,0.17061 -3.04815,0.0927 -4.73299,-0.17318 -1.95804,-0.30897 -3.06334,-0.29671 -3.06334,0.0339 0,0.28454 -0.35961,0.21889 -0.79913,-0.14588 -0.84434,-0.70074 -1.09463,-2.13102 -0.37293,-2.13102 0.23441,0 0.71389,0.28769 1.06551,0.63931 0.49724,0.49723 0.63931,0.49678 0.63931,-0.002 0,-0.35275 -1.07883,-0.9299 -2.3974,-1.28256 -1.31857,-0.35266 -2.3974,-0.84835 -2.3974,-1.10152 0,-0.25317 -0.36181,-0.82213 -0.80402,-1.26434 -0.44222,-0.44222 -0.66781,-1.02444 -0.50132,-1.29383 0.38161,-0.61736 6.63289,-0.65058 6.63289,-0.0351 0,0.25 -1.25863,0.37853 -2.79696,0.28562 l -2.79696,-0.16892 2.67068,0.64669 c 2.63735,0.63863 3.0448,1.07556 2.2177,2.37815 -0.23451,0.36933 -0.18754,0.66595 0.10545,0.66595 0.29056,0 0.6704,0.44772 0.84407,0.99494 0.35414,1.11579 4.22036,1.90579 6.51201,1.33062 1.05204,-0.26405 1.2529,-0.56403 0.97898,-1.46207 -0.65426,-2.14505 -0.53843,-2.71867 0.65592,-3.24834 0.65929,-0.29237 1.1987,-0.71448 1.1987,-0.93801 0,-0.22354 0.37178,-0.40643 0.82619,-0.40643 0.4544,0 4.47004,-2.58694 8.92364,-5.74876 9.49464,-6.74069 9.42935,-6.6983 9.42935,-6.12097 0,0.24559 -3.83445,3.17366 -8.52099,6.50683 -6.17565,4.39226 -8.37647,6.23444 -7.99594,6.69295 0.28876,0.34795 0.37251,0.78516 0.18608,0.97158 -0.18642,0.18642 -0.42261,1.81622 -0.52487,3.62175 -0.10226,1.80555 -0.44673,3.59706 -0.7655,3.98115 -0.68005,0.81941 -3.20704,1.18528 -9.85483,1.42684 l -4.83395,0.17565 -0.12477,-2.41013 c -0.1637,-3.16253 -0.59376,-3.53864 -0.60419,-0.52841 -0.004,1.29415 -0.24056,2.71261 -0.5246,3.15213 -0.36124,0.55898 -0.51889,-0.2987 -0.5246,-2.85396 z m 16.50724,-3.55252 c 0,-0.82373 0.14552,-1.87692 0.32338,-2.3404 0.2122,-0.553 0.029,-0.84271 -0.53275,-0.84271 -0.47088,0 -0.85613,0.23974 -0.85613,0.53276 0,0.29301 -0.49363,0.53275 -1.09696,0.53275 -0.74427,0 -0.96319,0.21411 -0.68092,0.66595 0.22882,0.36626 0.46423,0.98434 0.52316,1.37349 0.39412,2.60287 2.32022,2.66776 2.32022,0.0782 z m 17.08561,-13.70502 c -0.0206,-1.24531 0.20229,-2.26421 0.49531,-2.26421 0.63843,0 0.63843,1.97719 0,3.46291 -0.35461,0.82522 -0.46631,0.55489 -0.49531,-1.1987 z m -2.83441,-5.54719 c -0.80579,-0.2943 -1.46508,-0.7805 -1.46508,-1.08045 0,-0.31044 0.40161,-0.38002 0.93232,-0.16154 0.51278,0.2111 1.35187,0.50445 1.86464,0.65189 0.51278,0.14744 0.93233,0.47985 0.93233,0.73869 0,0.57 -0.3617,0.54627 -2.26421,-0.14859 z m 4.40338,-1.11224 c 0.004,-0.36627 0.24056,-1.02556 0.5246,-1.46508 0.40243,-0.62272 0.51824,-0.47572 0.5246,0.66594 0.004,0.8058 -0.23158,1.46508 -0.5246,1.46508 -0.29302,0 -0.52908,-0.29967 -0.5246,-0.66594 z m 9.59686,-18.49243 c -0.43103,-0.27259 -0.60513,-0.6742 -0.38688,-0.89245 0.21825,-0.21825 0.80209,0.008 1.29743,0.50379 0.96289,0.96289 0.38648,1.20893 -0.91055,0.38866 z m -2.66377,-2.13102 c -0.43104,-0.27259 -0.60514,-0.6742 -0.38688,-0.89245 0.21825,-0.21825 0.80209,0.008 1.29743,0.50379 0.96289,0.96289 0.38648,1.20893 -0.91055,0.38866 z m -2.67921,-1.88545 c -0.37652,-0.45368 -0.56472,-0.94475 -0.41821,-1.09126 0.14651,-0.14651 0.57444,0.10482 0.95097,0.55851 0.37652,0.45368 0.56472,0.94475 0.41821,1.09125 -0.14651,0.14651 -0.57444,-0.10481 -0.95097,-0.5585 z m -3.1811,-1.84383 c -0.43103,-0.2726 -0.60513,-0.6742 -0.38688,-0.89245 0.21826,-0.21826 0.8021,0.008 1.29744,0.50378 0.96289,0.9629 0.38647,1.20894 -0.91056,0.38867 z m -3.19653,-1.59827 c -0.43103,-0.27259 -0.64515,-0.63417 -0.47582,-0.80351 0.41968,-0.41968 2.05866,0.24884 2.05866,0.8397 0,0.60723 -0.58666,0.59382 -1.58284,-0.0362 z m -2.98447,-1.34125 c -0.90135,-0.68192 -0.91669,-0.77876 -0.12574,-0.79363 0.49549,-0.009 1.05891,0.23874 1.25205,0.55125 0.58035,0.93903 -0.0314,1.07068 -1.12631,0.24238 z m -3.69039,-1.34333 c -0.18109,-0.29302 0.16437,-0.53276 0.76769,-0.53276 0.60332,0 1.09695,0.23974 1.09695,0.53276 0,0.29301 -0.34546,0.53275 -0.76769,0.53275 -0.42223,0 -0.91586,-0.23974 -1.09695,-0.53275 z m -15.48564,-2.0369 c 0.61258,0.13823 0.93572,0.43976 0.0542,0.80925 -0.0705,0.0295 -0.36008,-0.39203 -0.36008,-0.39203 m 0.0739,3.18362 -7.21826,-2.26179 6.31218,-4.30665 m 13.16077,3.93899 c 0,-0.29302 0.34546,-0.53276 0.76769,-0.53276 0.42223,0 0.91586,0.23974 1.09696,0.53276 0.18109,0.29301 -0.16437,0.53275 -0.76769,0.53275 -0.60333,0 -1.09696,-0.23974 -1.09696,-0.53275 z m -3.4629,-0.53276 c -0.18674,-0.30215 0.26084,-0.53275 1.03406,-0.53275 0.74983,0 1.36333,0.23974 1.36333,0.53275 0,0.29302 -0.46533,0.53276 -1.03406,0.53276 -0.56874,0 -1.18224,-0.23974 -1.36333,-0.53276 z m -6.65944,-0.48561 c 0,-0.54163 1.36221,-0.46078 1.93801,0.11502 0.20383,0.20383 -0.14884,0.37059 -0.78371,0.37059 -0.63486,0 -1.1543,-0.21852 -1.1543,-0.48561 z m 3.38954,0.11502 c 0.5758,-0.5758 1.93801,-0.65665 1.93801,-0.11502 0,0.26709 -0.51944,0.48561 -1.1543,0.48561 -0.63487,0 -0.98754,-0.16676 -0.78371,-0.37059 z"
             style="fill:#ffffff" />
        </g>
        <path
           sodipodi:nodetypes="csccssccccccssscccsccscscsscssssssccccccssssssssssssssssss"
           inkscape:connector-curvature="0"
           id="path3401-3"
           d="m 390.64524,219.41942 c 0.2858,3.07462 -0.8733,4.7617 -1.25878,4.80402 -1.87821,0.20624 -2.59162,-6.27901 -0.90491,-7.66689 m -4.53931,-6.79529 c -0.7449,-1.39331 -0.60029,-2.74167 0.32136,-2.99627 0.92175,-0.25456 2.14925,1.24744 2.72638,3.34053 1.12321,4.06645 -0.8062,3.8485 -3.04774,-0.34426 z m -3.92138,-9.81381 c -0.74499,-1.39336 -0.60038,-2.74172 0.32137,-2.99628 0.92166,-0.25461 2.14924,1.24744 2.72637,3.34054 1.12313,4.06639 -0.80618,3.8485 -3.04774,-0.34426 z m -4.33836,-9.17567 c -0.32129,-1.79805 -0.0779,-3.409 0.54081,-3.5799 0.61874,-0.17089 1.38778,1.16039 1.70905,2.95847 0.32131,1.79804 0.0779,3.40899 -0.5408,3.57986 -0.61874,0.17089 -1.38778,-1.16037 -1.70906,-2.95843 z m -5.75449,-9.8306 c -0.74487,-1.39334 -0.60028,-2.74168 0.32147,-2.99623 0.92176,-0.25458 2.14924,1.24744 2.72639,3.34051 1.1231,4.06642 -0.80621,3.84851 -3.04786,-0.34428 z m -6.17127,-9.19239 c -0.74498,-1.39337 -0.76933,-2.69498 -0.0542,-2.89251 1.77238,-0.48954 5.16737,3.81691 4.26433,5.40917 -0.92805,1.63635 -2.4885,0.70359 -4.21012,-2.51669 z m -5.99269,-8.17571 c -1.38675,-3.2152 -1.28006,-3.49959 0.87413,-2.33082 1.34898,0.73299 2.48865,2.26171 2.53154,3.39908 0.12873,3.41745 -1.72073,2.83742 -3.40567,-1.06826 z m -7.89178,-9.26016 c -0.0402,-1.06645 1.25717,-1.18448 2.883,-0.2624 1.62582,0.92207 2.58967,2.32256 2.14184,3.1122 -0.44782,0.7896 -1.74523,0.90765 -2.88299,0.26238 -1.13784,-0.64532 -2.10168,-2.04582 -2.14185,-3.11218 z m -38.61768,-29.15639 c 1.43952,1.30873 1.84953,2.61448 -1.09077,2.26359 -0.23462,-0.0281 -0.17508,-2.21374 -0.17508,-2.21374 m -5.95176,8.86852 -13.05352,-16.19359 22.88056,-0.93277 m 28.30486,29.20053 c 0.44784,-0.78963 1.74514,-0.90772 2.88299,-0.2624 1.13784,0.64532 2.10169,2.04582 2.14183,3.1122 0.0402,1.06636 -1.25714,1.18446 -2.88297,0.26238 -1.62591,-0.92213 -2.58967,-2.32257 -2.14185,-3.11218 z m -8.51763,-6.72819 c -0.0414,-1.09962 1.51716,-1.037 3.60077,0.14471 2.02066,1.146 3.30756,2.72972 2.85974,3.51933 -0.44783,0.78962 -2.06821,0.7245 -3.60087,-0.14473 -1.53258,-0.8692 -2.81948,-2.45292 -2.85964,-3.51931 z m -17.20374,-11.48655 c 0.82779,-1.45958 4.37514,0.84022 5.04683,3.27195 0.23771,0.86076 -0.96756,0.77114 -2.67836,-0.19914 -1.71081,-0.97027 -2.77668,-2.35305 -2.36847,-3.07281 z m 8.95835,5.49034 c 2.43174,-0.67164 6.22621,1.19243 5.39843,2.65201 -0.40821,0.71977 -2.14203,0.51472 -3.85283,-0.45555 -1.71081,-0.97027 -2.40633,-1.95867 -1.5456,-2.19646 z"
           style="fill:#ffffff" />
      </g>
      <g
         transform="matrix(0.98082499,0,0,0.98082379,31.492578,132.93475)"
         style="color:#000000;font-style:normal;font-variant:normal;font-weight:normal;font-stretch:normal;font-size:29.06489372px;line-height:125%;font-family:'Impact LT Std';-inkscape-font-specification:'Impact LT Std';text-align:center;writing-mode:lr-tb;text-anchor:middle;clip-rule:nonzero;display:inline;overflow:visible;visibility:visible;opacity:1;isolation:auto;mix-blend-mode:normal;color-interpolation:sRGB;color-interpolation-filters:linearRGB;solid-color:#000000;solid-opacity:1;fill:#ff0000;fill-opacity:1;fill-rule:nonzero;stroke:none;stroke-width:5;stroke-linecap:butt;stroke-linejoin:miter;stroke-miterlimit:4;stroke-dasharray:none;stroke-dashoffset:0;stroke-opacity:1;color-rendering:auto;image-rendering:auto;shape-rendering:auto;text-rendering:auto;enable-background:accumulate"
         id="text3444-6">
        <path
           inkscape:connector-curvature="0"
           d="m 600.20313,86.377868 -2.58678,0 0,10.9284 c 0,2.441451 0.31972,5.638592 0.37785,6.103632 l -8.22537,-17.032032 -3.60405,0 0,20.025712 2.58678,0 0,-9.184507 c 0,-3.720306 -0.23252,-6.161757 -0.37784,-7.818456 l 8.13817,17.002963 3.69124,0 0,-20.025712 z"
           style="font-style:normal;font-variant:normal;font-weight:normal;font-stretch:normal;font-family:'Fira Sans';-inkscape-font-specification:'Fira Sans';fill:#ff0000"
           id="path3484" />
        <path
           inkscape:connector-curvature="0"
           d="m 617.45587,98.294474 c 0,-4.679448 -2.17987,-7.556872 -6.30708,-7.556872 -3.95283,0 -6.36522,3.400593 -6.36522,8.167235 0,4.853833 2.49958,7.847523 6.77212,7.847523 2.12174,0 3.83657,-0.72662 5.34794,-1.91828 l -1.16259,-1.59857 c -1.33699,0.93007 -2.47052,1.33698 -3.98189,1.33698 -2.20893,0 -3.86563,-1.36605 -4.12722,-4.911966 l 9.76581,0 c 0.0291,-0.348778 0.0581,-0.842882 0.0581,-1.36605 z m -2.64491,-0.610362 -7.17903,0 c 0.20346,-3.400593 1.54044,-4.824773 3.57499,-4.824773 2.41238,0 3.60404,1.656699 3.60404,4.650383 l 0,0.17439 z"
           style="font-style:normal;font-variant:normal;font-weight:normal;font-stretch:normal;font-family:'Fira Sans';-inkscape-font-specification:'Fira Sans';fill:#ff0000"
           id="path3486" />
        <path
           inkscape:connector-curvature="0"
           d="m 639.3935,91.086381 -2.55771,0 -2.79023,13.457049 -2.87742,-13.457049 -2.99369,0 -3.02275,13.457049 -2.76116,-13.457049 -2.67397,0 3.57498,15.317199 3.54592,0 2.76116,-12.904813 2.67397,12.904813 3.63311,0 3.48779,-15.317199 z"
           style="font-style:normal;font-variant:normal;font-weight:normal;font-stretch:normal;font-family:'Fira Sans';-inkscape-font-specification:'Fira Sans';fill:#ff0000"
           id="path3488" />
        <path
           inkscape:connector-curvature="0"
           d="m 649.44405,103.87493 c -0.75569,0.46504 -1.36605,0.6685 -2.03454,0.6685 -1.33699,0 -1.83109,-0.72663 -1.83109,-2.26707 l 0,-9.126372 3.34246,0 0.29065,-2.063607 -3.63311,0 0,-3.778436 -2.67397,0.319713 0,3.458723 -2.67397,0 0,2.063607 2.67397,0 0,9.242632 c 0,2.84836 1.54044,4.35974 4.12722,4.35974 1.30792,0 2.41238,-0.34878 3.42965,-1.04634 l -1.01727,-1.83109 z"
           style="font-style:normal;font-variant:normal;font-weight:normal;font-stretch:normal;font-family:'Fira Sans';-inkscape-font-specification:'Fira Sans';fill:#ff0000"
           id="path3490" />
        <path
           inkscape:connector-curvature="0"
           d="m 658.70303,90.737602 c -4.35973,0 -6.85931,3.284333 -6.85931,8.021911 0,4.853837 2.47052,7.992847 6.83025,7.992847 4.33067,0 6.83025,-3.28433 6.83025,-8.021912 0,-4.853837 -2.44145,-7.992846 -6.80119,-7.992846 z m 0,2.150802 c 2.52865,0 3.92377,1.860153 3.92377,5.842044 0,4.010952 -1.39512,5.871112 -3.95283,5.871112 -2.55771,0 -3.95283,-1.86016 -3.95283,-5.842047 0,-4.010956 1.42418,-5.871109 3.98189,-5.871109 z"
           style="font-style:normal;font-variant:normal;font-weight:normal;font-stretch:normal;font-family:'Fira Sans';-inkscape-font-specification:'Fira Sans';fill:#ff0000"
           id="path3492" />
        <path
           inkscape:connector-curvature="0"
           d="m 677.12973,90.737602 c -2.00548,0 -3.63311,1.046336 -4.67945,2.61584 l -0.23252,-2.267061 -2.29612,0 0,15.317199 2.67397,0 0,-10.870271 c 1.01727,-1.627634 2.17986,-2.703035 3.89469,-2.703035 1.48231,0 2.41239,0.668493 2.41239,2.96462 l 0,10.608686 2.67397,0 0,-10.98653 c 0,-2.906489 -1.62764,-4.679448 -4.44693,-4.679448 z"
           style="font-style:normal;font-variant:normal;font-weight:normal;font-stretch:normal;font-family:'Fira Sans';-inkscape-font-specification:'Fira Sans';fill:#ff0000"
           id="path3494" />
      </g>
      <g
         transform="matrix(0.98082499,0,0,0.98082379,31.492578,136.53398)"
         style="color:#000000;font-style:normal;font-variant:normal;font-weight:normal;font-stretch:normal;font-size:29.06489372px;line-height:125%;font-family:'Impact LT Std';-inkscape-font-specification:'Impact LT Std';text-align:center;writing-mode:lr-tb;text-anchor:middle;clip-rule:nonzero;display:inline;overflow:visible;visibility:visible;opacity:1;isolation:auto;mix-blend-mode:normal;color-interpolation:sRGB;color-interpolation-filters:linearRGB;solid-color:#000000;solid-opacity:1;fill:#00ffff;fill-opacity:1;fill-rule:nonzero;stroke:none;stroke-width:5;stroke-linecap:butt;stroke-linejoin:miter;stroke-miterlimit:4;stroke-dasharray:none;stroke-dashoffset:0;stroke-opacity:1;color-rendering:auto;image-rendering:auto;shape-rendering:auto;text-rendering:auto;enable-background:accumulate"
         id="text3444">
        <path
           inkscape:connector-curvature="0"
           d="m 460.76031,136.58237 -10.84121,0 0,20.02571 11.07373,0 0,-2.20893 -8.31256,0 0,-6.85932 6.74305,0 0,-2.20893 -6.74305,0 0,-6.5396 7.76032,0 0.31972,-2.20893 z"
           style="font-style:normal;font-variant:normal;font-weight:normal;font-stretch:normal;font-family:'Fira Sans';-inkscape-font-specification:'Fira Sans';fill:#00ffff"
           id="path3467" />
        <path
           inkscape:connector-curvature="0"
           d="m 466.63596,133.93746 c -1.10447,0 -1.86016,0.78475 -1.86016,1.83109 0,1.01727 0.75569,1.80202 1.86016,1.80202 1.13353,0 1.88922,-0.78475 1.88922,-1.80202 0,-1.04634 -0.75569,-1.83109 -1.88922,-1.83109 z m 1.36605,7.35342 -2.67397,0 0,15.3172 2.67397,0 0,-15.3172 z"
           style="font-style:normal;font-variant:normal;font-weight:normal;font-stretch:normal;font-family:'Fira Sans';-inkscape-font-specification:'Fira Sans';fill:#00ffff"
           id="path3469" />
        <path
           inkscape:connector-curvature="0"
           d="m 480.71063,140.9421 c -2.00548,0 -3.63311,1.04634 -4.67945,2.61584 l -0.23252,-2.26706 -2.29612,0 0,15.3172 2.67397,0 0,-10.87027 c 1.01727,-1.62764 2.17986,-2.70304 3.89469,-2.70304 1.48231,0 2.41239,0.6685 2.41239,2.96462 l 0,10.60869 2.67397,0 0,-10.98653 c 0,-2.90649 -1.62763,-4.67945 -4.44693,-4.67945 z"
           style="font-style:normal;font-variant:normal;font-weight:normal;font-stretch:normal;font-family:'Fira Sans';-inkscape-font-specification:'Fira Sans';fill:#00ffff"
           id="path3471" />
        <path
           inkscape:connector-curvature="0"
           d="m 494.68903,140.9421 c -3.16807,0 -5.52233,1.77296 -5.52233,4.21441 0,2.1508 1.30792,3.57498 4.62132,4.44693 2.96462,0.78475 3.7203,1.36605 3.7203,2.87742 0,1.45325 -1.27885,2.32519 -3.28433,2.32519 -1.6567,0 -3.08088,-0.55223 -4.3016,-1.4823 l -1.42418,1.62763 c 1.33698,1.16259 3.19714,2.00548 5.78391,2.00548 3.10994,0 6.0455,-1.45325 6.0455,-4.65039 0,-2.67397 -1.86015,-3.95282 -5.08636,-4.76664 -2.47051,-0.63943 -3.28433,-1.22072 -3.28433,-2.47051 0,-1.22073 1.0754,-2.00548 2.81929,-2.00548 1.42418,0 2.61584,0.43597 3.98189,1.30792 l 1.13354,-1.68577 c -1.45325,-1.10446 -3.05182,-1.74389 -5.20262,-1.74389 z"
           style="font-style:normal;font-variant:normal;font-weight:normal;font-stretch:normal;font-family:'Fira Sans';-inkscape-font-specification:'Fira Sans';fill:#00ffff"
           id="path3473" />
        <path
           inkscape:connector-curvature="0"
           d="m 510.81414,154.07943 c -0.75569,0.46504 -1.36605,0.66849 -2.03454,0.66849 -1.33699,0 -1.83109,-0.72662 -1.83109,-2.26706 l 0,-9.12637 3.34246,0 0.29065,-2.06361 -3.63311,0 0,-3.77844 -2.67397,0.31972 0,3.45872 -2.67397,0 0,2.06361 2.67397,0 0,9.24263 c 0,2.84836 1.54044,4.35974 4.12722,4.35974 1.30792,0 2.41238,-0.34878 3.42965,-1.04634 l -1.01727,-1.83109 z"
           style="font-style:normal;font-variant:normal;font-weight:normal;font-stretch:normal;font-family:'Fira Sans';-inkscape-font-specification:'Fira Sans';fill:#00ffff"
           id="path3475" />
        <path
           inkscape:connector-curvature="0"
           d="m 525.88611,148.49897 c 0,-4.67945 -2.17987,-7.55687 -6.30708,-7.55687 -3.95283,0 -6.36522,3.40059 -6.36522,8.16724 0,4.85383 2.49958,7.84752 6.77212,7.84752 2.12174,0 3.83657,-0.72663 5.34794,-1.91829 L 524.17128,153.44 c -1.33699,0.93008 -2.47052,1.33699 -3.98189,1.33699 -2.20893,0 -3.86563,-1.36605 -4.12722,-4.91197 l 9.76581,0 c 0.0291,-0.34878 0.0581,-0.84288 0.0581,-1.36605 z m -2.64491,-0.61036 -7.17903,0 c 0.20346,-3.40059 1.54044,-4.82477 3.57499,-4.82477 2.41238,0 3.60404,1.6567 3.60404,4.65038 l 0,0.17439 z"
           style="font-style:normal;font-variant:normal;font-weight:normal;font-stretch:normal;font-family:'Fira Sans';-inkscape-font-specification:'Fira Sans';fill:#00ffff"
           id="path3477" />
        <path
           inkscape:connector-curvature="0"
           d="m 531.63459,133.93746 c -1.10446,0 -1.86015,0.78475 -1.86015,1.83109 0,1.01727 0.75569,1.80202 1.86015,1.80202 1.13353,0 1.88922,-0.78475 1.88922,-1.80202 0,-1.04634 -0.75569,-1.83109 -1.88922,-1.83109 z m 1.36605,7.35342 -2.67397,0 0,15.3172 2.67397,0 0,-15.3172 z"
           style="font-style:normal;font-variant:normal;font-weight:normal;font-stretch:normal;font-family:'Fira Sans';-inkscape-font-specification:'Fira Sans';fill:#00ffff"
           id="path3479" />
        <path
           inkscape:connector-curvature="0"
           d="m 545.70927,140.9421 c -2.00547,0 -3.63311,1.04634 -4.67944,2.61584 l -0.23252,-2.26706 -2.29613,0 0,15.3172 2.67397,0 0,-10.87027 c 1.01727,-1.62764 2.17987,-2.70304 3.8947,-2.70304 1.4823,0 2.41238,0.6685 2.41238,2.96462 l 0,10.60869 2.67397,0 0,-10.98653 c 0,-2.90649 -1.62763,-4.67945 -4.44693,-4.67945 z"
           style="font-style:normal;font-variant:normal;font-weight:normal;font-stretch:normal;font-family:'Fira Sans';-inkscape-font-specification:'Fira Sans';fill:#00ffff"
           id="path3481" />
      </g>
    </g>
  </g>
</svg>
