<?xml version="1.0" encoding="UTF-8" standalone="no"?>
<!-- Created with Inkscape (http://www.inkscape.org/) -->

<svg
   xmlns:dc="http://purl.org/dc/elements/1.1/"
   xmlns:cc="http://creativecommons.org/ns#"
   xmlns:rdf="http://www.w3.org/1999/02/22-rdf-syntax-ns#"
   xmlns:svg="http://www.w3.org/2000/svg"
   xmlns="http://www.w3.org/2000/svg"
   xmlns:sodipodi="http://sodipodi.sourceforge.net/DTD/sodipodi-0.dtd"
   xmlns:inkscape="http://www.inkscape.org/namespaces/inkscape"
   width="800"
   height="600"
   id="svg3352"
   version="1.1"
   inkscape:version="0.91 r13725"
   viewBox="0 0 800 600"
   sodipodi:docname="ligo-3.svg">
  <sodipodi:namedview
     id="base"
     pagecolor="#ffffff"
     bordercolor="#666666"
     borderopacity="1.0"
     inkscape:pageopacity="0.0"
     inkscape:pageshadow="2"
     inkscape:zoom="0.84852814"
     inkscape:cx="551.51276"
     inkscape:cy="278.97734"
     inkscape:current-layer="layer2"
     inkscape:document-units="px"
     showgrid="false"
     inkscape:window-width="1366"
     inkscape:window-height="713"
     inkscape:window-x="0"
     inkscape:window-y="0"
     inkscape:window-maximized="1" />
  <defs
     id="defs3354">
    <marker
       inkscape:stockid="Arrow1Sstart"
       orient="auto"
       refY="0.0"
       refX="0.0"
       id="Arrow1Sstart"
       style="overflow:visible"
       inkscape:isstock="true">
      <path
         id="path4303"
         d="M 0.0,0.0 L 5.0,-5.0 L -12.5,0.0 L 5.0,5.0 L 0.0,0.0 z "
         style="fill-rule:evenodd;stroke:#f3f200;stroke-width:1pt;stroke-opacity:1;fill:#ffff00;fill-opacity:1"
         transform="scale(0.2) translate(6,0)" />
    </marker>
    <marker
       inkscape:stockid="Arrow2Lend"
       orient="auto"
       refY="0.0"
       refX="0.0"
       id="Arrow2Lend"
       style="overflow:visible;"
       inkscape:isstock="true">
      <path
         id="path4312"
         style="fill-rule:evenodd;stroke-width:0.625;stroke-linejoin:round;stroke:#f3f200;stroke-opacity:1;fill:#ffff00;fill-opacity:1"
         d="M 8.7185878,4.0337352 L -2.2072895,0.016013256 L 8.7185884,-4.0017078 C 6.9730900,-1.6296469 6.9831476,1.6157441 8.7185878,4.0337352 z "
         transform="scale(1.1) rotate(180) translate(1,0)" />
    </marker>
    <marker
       inkscape:stockid="Arrow1Lend"
       orient="auto"
       refY="0.0"
       refX="0.0"
       id="marker4863"
       style="overflow:visible;"
       inkscape:isstock="true">
      <path
         id="path4865"
         d="M 0.0,0.0 L 5.0,-5.0 L -12.5,0.0 L 5.0,5.0 L 0.0,0.0 z "
         style="fill-rule:evenodd;stroke:#f3f200;stroke-width:1pt;stroke-opacity:1;fill:#ffff00;fill-opacity:1"
         transform="scale(0.8) rotate(180) translate(12.5,0)" />
    </marker>
    <marker
       inkscape:stockid="Arrow1Mend"
       orient="auto"
       refY="0.0"
       refX="0.0"
       id="marker4805"
       style="overflow:visible;"
       inkscape:isstock="true">
      <path
         id="path4807"
         d="M 0.0,0.0 L 5.0,-5.0 L -12.5,0.0 L 5.0,5.0 L 0.0,0.0 z "
         style="fill-rule:evenodd;stroke:#f3f200;stroke-width:1pt;stroke-opacity:1;fill:#ffff00;fill-opacity:1"
         transform="scale(0.4) rotate(180) translate(10,0)" />
    </marker>
    <marker
       inkscape:stockid="Arrow1Mend"
       orient="auto"
       refY="0.0"
       refX="0.0"
       id="marker4723"
       style="overflow:visible;"
       inkscape:isstock="true">
      <path
         id="path4725"
         d="M 0.0,0.0 L 5.0,-5.0 L -12.5,0.0 L 5.0,5.0 L 0.0,0.0 z "
         style="fill-rule:evenodd;stroke:#f3f200;stroke-width:1pt;stroke-opacity:1;fill:#ffff00;fill-opacity:1"
         transform="scale(0.4) rotate(180) translate(10,0)" />
    </marker>
    <marker
       inkscape:stockid="Arrow1Mend"
       orient="auto"
       refY="0.0"
       refX="0.0"
       id="marker4677"
       style="overflow:visible;"
       inkscape:isstock="true">
      <path
         id="path4679"
         d="M 0.0,0.0 L 5.0,-5.0 L -12.5,0.0 L 5.0,5.0 L 0.0,0.0 z "
         style="fill-rule:evenodd;stroke:#f3f200;stroke-width:1pt;stroke-opacity:1;fill:#ffff00;fill-opacity:1"
         transform="scale(0.4) rotate(180) translate(10,0)" />
    </marker>
    <marker
       inkscape:stockid="Arrow1Mend"
       orient="auto"
       refY="0.0"
       refX="0.0"
       id="Arrow1Mend"
       style="overflow:visible;"
       inkscape:isstock="true">
      <path
         id="path4300"
         d="M 0.0,0.0 L 5.0,-5.0 L -12.5,0.0 L 5.0,5.0 L 0.0,0.0 z "
         style="fill-rule:evenodd;stroke:#f3f200;stroke-width:1pt;stroke-opacity:1;fill:#ffff00;fill-opacity:1"
         transform="scale(0.4) rotate(180) translate(10,0)" />
    </marker>
    <marker
       inkscape:stockid="Arrow1Lend"
       orient="auto"
       refY="0.0"
       refX="0.0"
       id="marker4593"
       style="overflow:visible;"
       inkscape:isstock="true">
      <path
         id="path4595"
         d="M 0.0,0.0 L 5.0,-5.0 L -12.5,0.0 L 5.0,5.0 L 0.0,0.0 z "
         style="fill-rule:evenodd;stroke:#f3f200;stroke-width:1pt;stroke-opacity:1;fill:#ffff00;fill-opacity:1"
         transform="scale(0.8) rotate(180) translate(12.5,0)" />
    </marker>
    <marker
       inkscape:stockid="Arrow1Lstart"
       orient="auto"
       refY="0.0"
       refX="0.0"
       id="Arrow1Lstart"
       style="overflow:visible"
       inkscape:isstock="true">
      <path
         id="path4291"
         d="M 0.0,0.0 L 5.0,-5.0 L -12.5,0.0 L 5.0,5.0 L 0.0,0.0 z "
         style="fill-rule:evenodd;stroke:#f3f200;stroke-width:1pt;stroke-opacity:1;fill:#ffff00;fill-opacity:1"
         transform="scale(0.8) translate(12.5,0)" />
    </marker>
    <marker
       inkscape:stockid="Arrow1Lend"
       orient="auto"
       refY="0.0"
       refX="0.0"
       id="Arrow1Lend"
       style="overflow:visible;"
       inkscape:isstock="true">
      <path
         id="path4294"
         d="M 0.0,0.0 L 5.0,-5.0 L -12.5,0.0 L 5.0,5.0 L 0.0,0.0 z "
         style="fill-rule:evenodd;stroke:#f3f200;stroke-width:1pt;stroke-opacity:1;fill:#ffff00;fill-opacity:1"
         transform="scale(0.8) rotate(180) translate(12.5,0)" />
    </marker>
    <inkscape:path-effect
       effect="powerstroke"
       id="path-effect3485"
       is_visible="true"
       offset_points="0.34241243,-0.071842065"
       sort_points="true"
       interpolator_type="Linear"
       interpolator_beta="0.2"
       start_linecap_type="zerowidth"
       linejoin_type="round"
       miter_limit="4"
       end_linecap_type="zerowidth"
       cusp_linecap_type="round" />
    <inkscape:path-effect
       effect="spiro"
       id="path-effect3483"
       is_visible="true" />
    <clipPath
       id="clipPath3395"
       clipPathUnits="userSpaceOnUse">
      <path
         inkscape:connector-curvature="0"
         id="path3397"
         d="M 0,792 612,792 612,0 0,0 0,792 Z" />
    </clipPath>
    <linearGradient
       id="linearGradient3411"
       spreadMethod="pad"
       gradientTransform="matrix(0,-727.50153,-727.50153,0,296.9985,727.50146)"
       gradientUnits="userSpaceOnUse"
       y2="0"
       x2="1"
       y1="0"
       x1="0">
      <stop
         id="stop3413"
         offset="0"
         style="stop-opacity:1;stop-color:#e6e2f1" />
      <stop
         id="stop3415"
         offset="1"
         style="stop-opacity:1;stop-color:#847cba" />
    </linearGradient>
    <clipPath
       id="clipPath3531"
       clipPathUnits="userSpaceOnUse">
      <path
         inkscape:connector-curvature="0"
         id="path3533"
         d="m 311.04,427.92 264.96,0 0,163.08 -264.96,0 0,-163.08 z" />
    </clipPath>
    <clipPath
       id="clipPath3551"
       clipPathUnits="userSpaceOnUse">
      <path
         inkscape:connector-curvature="0"
         id="path3553"
         d="m 36.88,307.999 264.08,0 0,178.002 -264.08,0 0,-178.002 z" />
    </clipPath>
    <clipPath
       id="clipPath3567"
       clipPathUnits="userSpaceOnUse">
      <path
         inkscape:connector-curvature="0"
         id="path3569"
         d="m 262.537,67 326.462,0 0,186.624 -326.462,0 0,-186.624 z" />
    </clipPath>
    <inkscape:perspective
       id="perspective10"
       inkscape:persp3d-origin="372.04724 : 350.78739 : 1"
       inkscape:vp_z="744.09448 : 526.18109 : 1"
       inkscape:vp_y="0 : 1000 : 0"
       inkscape:vp_x="0 : 526.18109 : 1"
       sodipodi:type="inkscape:persp3d" />
    <inkscape:perspective
       sodipodi:type="inkscape:persp3d"
       inkscape:vp_x="0 : 180 : 1"
       inkscape:vp_y="0 : 1000 : 0"
       inkscape:vp_z="760 : 180 : 1"
       inkscape:persp3d-origin="380 : 120 : 1"
       id="perspective2458" />
    <clipPath
       id="clipPath3471"
       clipPathUnits="userSpaceOnUse">
      <path
         inkscape:connector-curvature="0"
         id="path3473"
         d="M 0,792 612,792 612,0 0,0 0,792 Z" />
    </clipPath>
    <linearGradient
       id="linearGradient3487"
       spreadMethod="pad"
       gradientTransform="matrix(7.6659813,-548.99768,-548.99768,-7.6659813,271.4985,577.50146)"
       gradientUnits="userSpaceOnUse"
       y2="0"
       x2="1"
       y1="0"
       x1="0">
      <stop
         id="stop3489"
         offset="0"
         style="stop-opacity:1;stop-color:#e6e2f1" />
      <stop
         id="stop3491"
         offset="1"
         style="stop-opacity:1;stop-color:#847cba" />
    </linearGradient>
    <clipPath
       id="clipPath3689"
       clipPathUnits="userSpaceOnUse">
      <path
         inkscape:connector-curvature="0"
         id="path3691"
         d="m 83.109,475 456.891,0 0,208.62 -456.891,0 0,-208.62 z" />
    </clipPath>
    <clipPath
       id="clipPath3799"
       clipPathUnits="userSpaceOnUse">
      <path
         inkscape:connector-curvature="0"
         id="path3801"
         d="m 83.109,475 456.891,0 0,208.62 -456.891,0 0,-208.62 z" />
    </clipPath>
    <clipPath
       id="clipPath3905"
       clipPathUnits="userSpaceOnUse">
      <path
         inkscape:connector-curvature="0"
         id="path3907"
         d="m 309.08,64.12 266.76,0 0,360 -266.76,0 0,-360 z" />
    </clipPath>
  </defs>
  <metadata
     id="metadata3357">
    <rdf:RDF>
      <cc:Work
         rdf:about="">
        <dc:format>image/svg+xml</dc:format>
        <dc:type
           rdf:resource="http://purl.org/dc/dcmitype/StillImage" />
        <dc:title />
      </cc:Work>
    </rdf:RDF>
  </metadata>
  <g
     id="layer1"
     inkscape:label="bg"
     inkscape:groupmode="layer"
     sodipodi:insensitive="true">
    <rect
       style="color:#000000;clip-rule:nonzero;display:inline;overflow:visible;visibility:visible;opacity:1;isolation:auto;mix-blend-mode:normal;color-interpolation:sRGB;color-interpolation-filters:linearRGB;solid-color:#000000;solid-opacity:1;fill:#222222;fill-opacity:1;fill-rule:nonzero;stroke:none;stroke-width:3;stroke-linecap:butt;stroke-linejoin:miter;stroke-miterlimit:10.43299961;stroke-dasharray:none;stroke-dashoffset:0;stroke-opacity:1;color-rendering:auto;image-rendering:auto;shape-rendering:auto;text-rendering:auto;enable-background:accumulate"
       id="rect3747"
       width="800"
       height="600"
       x="0"
       y="4.2632564e-14" />
    <text
       xml:space="preserve"
       style="color:#000000;font-style:normal;font-variant:normal;font-weight:normal;font-stretch:normal;font-size:17.5px;line-height:125%;font-family:'Fira Sans';-inkscape-font-specification:'Fira Sans';text-align:center;writing-mode:lr-tb;text-anchor:middle;clip-rule:nonzero;display:inline;overflow:visible;visibility:visible;opacity:1;isolation:auto;mix-blend-mode:normal;color-interpolation:sRGB;color-interpolation-filters:linearRGB;solid-color:#000000;solid-opacity:1;fill:#ffff00;fill-opacity:1;fill-rule:nonzero;stroke:none;stroke-width:1;stroke-linecap:butt;stroke-linejoin:miter;stroke-miterlimit:10.43299961;stroke-dasharray:none;stroke-dashoffset:0;stroke-opacity:1;color-rendering:auto;image-rendering:auto;shape-rendering:auto;text-rendering:auto;enable-background:accumulate"
       x="234.1123"
       y="77.720001"
       id="text4537"
       sodipodi:linespacing="125%"><tspan
         sodipodi:role="line"
         id="tspan4539"
         x="234.1123"
         y="77.720001"
         style="font-size:35px;fill:#ffffff">Padrão de interferência</tspan></text>
  </g>
  <g
     inkscape:groupmode="layer"
     id="layer2"
     inkscape:label="Contents"
     style="display:inline"
     sodipodi:insensitive="true">
    <text
       style="font-variant:normal;font-weight:normal;font-stretch:normal;font-size:13.75px;font-family:'Garamond Premr Pro';-inkscape-font-specification:GaramondPremrPro;writing-mode:lr-tb;fill:#ffffff;fill-opacity:1;fill-rule:nonzero;stroke:none"
       id="text3455"
       x="1517.4913"
       y="-61.395954">
      <tspan
         x="1517.4913 1527.9688 1533.3588 1537.7175 1542.9701 1546.9713 1549.79"
         y="-61.395954"
         sodipodi:role="line"
         id="tspan3457">meter.</tspan>
      <tspan
         x="1164.1713 1172.0226 1176.8213 1187.2025 1197.9413 1201.9838 1207.4288 1214.0013 1221.0688 1225.4825 1228.9613 1233.2926 1237.6238 1242.0376 1246.0801 1252.7075 1256.75 1260.7926 1265.4249 1274.335 1280.9624 1285.0049 1291.9487 1297.2012 1301.8762 1308.8186 1314.071 1321.2347 1328.1786 1331.6573 1337.0474 1343.9773 1347.2773 1352.681 1356.8198 1359.6385 1363.681 1370.3635 1374.2548 1380.6486 1391.1261 1395.1686 1399.3485 1404.7523 1409.2623 1419.6436 1423.6722 1428.7598"
         y="392.89029"
         sodipodi:role="line"
         id="tspan3459">LIGO consists of two perpendicular, 4-km “arms”</tspan>
      <tspan
         x="1164.1713 1169.7538 1174.1676 1177.4539 1184.3151 1189.5813 1196.455 1199.9337 1205.3237 1209.6824 1215.2512 1222.1124 1225.3987 1228.7949 1235.9586 1239.2449 1246.2162 1249.6949 1255.8673 1262.4811 1267.046 1272.436 1275.7223 1282.4048 1289.0873 1291.906 1298.4785 1307.7736 1311.0598 1314.3597 1319.9423 1324.3561 1329.6085 1334.2836 1337.5698 1344.3761 1349.766 1355.1698 1365.6473 1368.9336 1372.4124 1376.826 1380.1123 1387.0973 1391.6624 1397.2297 1404.0909 1407.3772 1410.7734 1417.7584 1422.1172 1428.7446"
         y="409.39029"
         sodipodi:role="line"
         id="tspan3461">as depicted in Figure 10. A laser beam is fred into</tspan>
      <tspan
         x="1164.1713 1169.63 1173.6312 1180.4375 1185.8275 1191.2313 1201.7087 1205.7101 1209.9725 1216.8475 1220.2837 1223.7625 1228.1212 1232.48 1237.7324 1242.4075 1246.4087 1250.6711 1257.5599 1262.8949 1267.3224 1271.3237 1275.7374 1280.99 1288.1537 1295.0149 1299.4287 1303.4299 1310.3187 1315.9287 1319.2286 1323.2711 1327.2725 1331.5349 1338.5886 1343.9786 1347.98 1351.4175 1354.8962 1360.9462 1367.8212 1372.2487 1376.2499 1383.1112 1389.6287 1398.47 1405.6337 1409.6349 1416.2074 1423.3712 1428.7612"
         y="425.89032"
         sodipodi:role="line"
         id="tspan3463">a beam splitter that sends half the light down one</tspan>
      <tspan
         x="1164.1713 1170.7988 1174.8413 1177.7288 1181.9913 1189.045 1194.4351 1198.8488 1204.2388 1207.1263 1212.53 1217.04 1227.4213 1231.8351 1234.6538 1237.5413 1242.9451 1250.1088 1256.9701 1259.8575 1266.7463 1272.3563 1275.6562 1279.6989 1282.5863 1289.4475 1295.9651 1304.8063 1311.9701 1314.8575 1319.12 1326.1738 1331.5638 1334.4513 1341.0787 1345.3413 1352.395 1357.6476 1361.6488 1364.4675 1367.3551 1381.7788 1387.1688 1390.0563 1400.6163 1404.0126 1408.5226 1413.0875 1419.66 1424.3351 1428.7488"
         y="442.39029"
         sodipodi:role="line"
         id="tspan3465">of these arms, and half down the other. Te mirrors</tspan>
      <tspan
         x="1164.1713 1168.4338 1175.4875 1180.74 1187.9038 1191.2175 1195.7826 1201.1726 1208.2812 1213.8501 1219.2401 1223.6676 1226.9813 1231.2438 1238.2976 1243.6875 1247.0013 1250.4388 1253.9176 1259.9662 1266.8412 1271.2687 1274.5824 1281.3199 1286.7787 1292.1687 1298.7549 1302.0687 1306.3312 1313.3849 1318.7749 1322.0886 1330.9437 1336.3062 1341.9987 1345.3124 1348.7911 1353.2186 1356.5325 1361.8674 1367.2711 1377.7487 1383.1387 1385.9574 1389.2711 1394.6749 1401.8386 1408.7 1412.0137 1416.2761 1423.33 1428.72"
         y="458.89029"
         sodipodi:role="line"
         id="tspan3467">then refect the light back the way it came, and the</tspan>
      <tspan
         x="1164.1713 1170.9775 1176.3676 1181.7714 1192.2488 1193.9318 1198.1957 1205.0693 1208.5068 1211.9856 1216.3442 1220.703 1225.9556 1230.6305 1232.3149 1237.7599 1244.3324 1254.8099 1261.5475 1264.9437 1272.1074 1277.4974 1281.9111 1283.5956 1287.858 1294.9117 1300.3018 1301.9849 1306.6185 1315.5286 1322.156 1323.8405 1330.6467 1336.0366 1341.4404 1351.8217 1356.2355 1357.9198 1364.6559 1370.1146 1375.5046 1382.0909 1383.7753 1387.1715 1394.1565 1398.5153 1405.1428 1406.8271 1413.3997 1420.5635 1425.9534 1428.7722"
         y="475.39029"
         sodipodi:role="line"
         id="tspan3469">beam splitter combines the two beams back into one,</tspan>
      <tspan
         x="1164.1713 1168.5851 1173.8375 1181.0013 1187.9451 1191.3413 1198.4225 1204.1426 1208.7213 1212.9838 1220.0376 1225.4275 1230.0063 1235.4513 1242.0238 1252.5013 1259.2374 1262.6337 1269.7974 1275.3662 1282.2274 1286.8062 1293.6124 1299.0024 1304.4061 1314.8837 1319.4624 1323.8212 1330.4487 1335.0275 1340.4862 1345.0649 1351.9261 1357.3162 1361.6749 1367.2437 1372.6337 1376.9924 1383.5649 1387.5662 1390.3849 1394.9636 1402.8149 1407.6123 1417.9935 1428.7323"
         y="491.89029"
         sodipodi:role="line"
         id="tspan3471">sending the combined beam to a detector. LIGO</tspan>
      <tspan
         x="1164.1713 1169.5063 1174.91 1179.4751 1184.865 1189.1 1196.03 1199.4662 1202.8212 1208.5137 1214.6324 1218.9912 1225.605 1232.7687 1238.1587 1242.5724 1248.6912 1252.9537 1260.0074 1265.3975 1271.5161 1274.8712 1280.1237 1287.205 1293.3773 1297.6398 1304.5973 1309.0111 1315.1298 1321.7573 1325.7998 1331.9186 1336.181 1343.2349 1348.6248 1354.7435 1361.6049 1366.9948 1371.3535 1376.9222 1382.3123 1386.671 1393.2435 1397.9186 1404.0374 1409.441 1413.951 1424.3323 1428.7461"
         y="508.39032"
         sodipodi:role="line"
         id="tspan3473">carefully tunes the lengths of the detector arms</tspan>
      <tspan
         x="1164.1713 1168.5851 1175.2125 1179.3375 1183.6001 1190.4888 1195.8237 1200.2513 1204.3763 1208.6388 1215.6925 1221.0825 1225.2075 1228.645 1232.1238 1238.1738 1245.0488 1249.4763 1253.6013 1257.6438 1262.2089 1268.7812 1279.2588 1283.3838 1287.6462 1294.7001 1300.0901 1304.2151 1309.6188 1314.1288 1324.51 1328.9238 1333.0488 1338.6588 1342.0138 1352.4913 1359.1188 1363.4487 1367.8762 1372.0012 1377.4462 1384.0187 1394.3586 1401.2336 1404.5886 1409.9786 1414.3374 1419.7274 1423.0824 1428.7749"
         y="524.89026"
         sodipodi:role="line"
         id="tspan3475">so that the light from the arms almost completely</tspan>
      <tspan
         x="1164.1713 1169.5063 1174.91 1182.0737 1187.5188 1192.9088 1196.2638 1200.6775 1205.0638 1211.6913 1218.3601 1222.7876 1225.6063 1229.9926 1236.5651 1241.24 1245.6263 1252.24 1259.4038 1266.265 1271.5176 1276.1925 1282.2151 1288.9663 1294.3563 1298.77 1303.1562 1310.0176 1315.4076 1319.7374 1323.9175 1328.7162 1335.5637 1340.9536 1345.2162 1348.6949 1354.3875 1359.7775 1364.1637 1367.5599 1374.5449 1378.9037 1384.1561 1388.8312 1392.8737 1398.1262 1402.6912 1407.9437 1415.1074 1420.5524 1425.9424 1428.7612"
         y="541.39032"
         sodipodi:role="line"
         id="tspan3477">cancels out, or undergoes destructive interference,</tspan>
      <tspan
         x="1164.1713 1173.0951 1180.1488 1185.4012 1192.5651 1197.7557 1202.0182 1209.0719 1214.4619 1219.6594 1224.2245 1229.6144 1236.7231 1242.2919 1247.6819 1252.0393 1257.608 1264.4692 1269.6667 1276.473 1281.863 1287.2654 1297.6481 1302.0618 1307.2524 1311.8174 1317.3861 1322.8312 1329.4037 1339.8812 1346.6187 1350.0149 1357.1787 1362.5687 1367.7593 1374.4968 1379.9556 1385.3456 1391.9318 1397.1224 1402.4574 1406.8849 1412.0756 1416.3395 1423.3932 1428.7832"
         y="557.89026"
         sodipodi:role="line"
         id="tspan3479">when the refected beams recombine back at the</tspan>
      <tspan
         x="1164.1713 1170.9775 1176.3676 1181.7714 1192.2488 1196.4838 1200.7463 1207.6213 1211.0574 1214.5361 1218.8949 1223.2537 1228.5076 1232.5074 1235.3262 1239.5612 1250.4099 1256.9275 1265.8374 1271.4337 1277.1262 1282.3787 1286.5175 1289.3362 1293.5712 1297.0499 1301.0924 1305.3274 1309.59 1316.6437 1322.0337 1326.2687 1331.6724 1336.1824 1346.6599 1350.8949 1354.2499 1359.5024 1366.5836 1372.7561 1377.0186 1383.9761 1388.3898 1392.6248 1398.0148 1404.9036 1410.3073 1417.3885 1423.411 1428.801"
         y="574.39032"
         sodipodi:role="line"
         id="tspan3481">beam splitter. However, if the arm lengths change</tspan>
      <tspan
         x="1164.1713 1168.5851 1172.0226 1175.5013 1181.5499 1188.4249 1192.6874 1196.0425 1201.7349 1204.3199 1211.1262 1217.9736 1223.3636 1225.9487 1230.3074 1236.9349 1239.5199 1244.9786 1247.5637 1254.4387 1260.0198 1264.3236 1268.7373 1272.1335 1279.2148 1284.9348 1287.5198 1293.446 1298.066 1303.3735 1309.0935 1312.5723 1316.8623 1322.1959 1326.4584 1329.9371 1336.5096 1343.5084 1349.1184 1352.4734 1355.0585 1363.9135 1369.2209 1374.9135 1380.3035 1383.1222 1385.7072 1389.9697 1397.0234 1402.2759 1409.4397 1412.0247 1416.2872 1423.3409 1428.731"
         y="590.89026"
         sodipodi:role="line"
         id="tspan3483">slightly due to a passing gravitational wave, then the</tspan>
      <tspan
         x="1164.1713 1171.115 1174.5938 1182.28 1187.5326 1192.0975 1197.3501 1204.5138 1209.9587 1215.3488 1219.7626 1221.4882 1224.8844 1232.0482 1233.7806 1237.1356 1242.3882 1249.4695 1255.6418 1259.9043 1266.958 1268.6906 1277.6143 1281.093 1284.5305 1287.8855 1289.6112 1293.0074 1299.9924 1304.1724 1308.7374 1315.4886 1322.2949 1329.1425 1334.5874 1339.9774 1341.703 1347.1619 1348.8943 1353.1705 1363.483 1369.0917 1372.5292 1375.8842 1377.6167 1384.5591 1388.0378 1395.724 1400.9766 1405.5415 1410.7941 1417.9578 1423.4028 1428.7928"
         y="607.39026"
         sodipodi:role="line"
         id="tspan3485">diferences in length will introduce a small diference</tspan>
      <tspan
         x="1164.1713 1167.5675 1174.7313 1177.0687 1183.9437 1190.8325 1196.415 1200.8289 1206.2188 1208.5563 1215.3625 1220.7526 1225.3849 1234.2949 1239.8636 1245.1162 1252.2799 1254.6174 1258.8799 1265.9337 1271.3237 1273.6611 1280.4674 1285.8574 1291.2612 1301.7386 1304.0762 1308.1187 1312.6837 1319.2562 1329.7336 1332.0712 1339.0149 1342.4937 1350.1799 1355.4324 1359.9974 1365.2499 1372.2349 1376.6625 1378.9999 1384.4037 1388.9137 1399.2949 1403.7911 1406.6099 1408.9474 1423.3712 1428.7612"
         y="623.89032"
         sodipodi:role="line"
         id="tspan3487">in phase between the beam from diferent arms. Te</tspan>
      <tspan
         x="1164.1713 1173.0264 1178.3339 1184.0262 1189.4163 1193.8301 1197.8864 1202.1488 1209.0376 1214.3726 1218.8 1222.8563 1231.7649 1238.3925 1245.3224 1248.6774 1255.5387 1259.595 1266.4836 1271.7911 1277.485 1282.875 1286.9313 1292.2664 1297.67 1304.8337 1310.2788 1315.6688 1319.1063 1322.4613 1328.0287 1334.8899 1338.9462 1344.3362 1349.7949 1355.1849 1362.2386 1366.2949 1372.9225 1377.1849 1384.2386 1389.4897 1394.1648 1398.2211 1403.556 1407.9835 1412.0398 1416.3022 1423.3561 1428.7461"
         y="640.39032"
         sodipodi:role="line"
         id="tspan3489">waves that would have cancelled each other at the</tspan>
      <tspan
         x="1164.1713 1170.9775 1176.3676 1181.7714 1192.2488 1195.645 1199.9076 1206.7826 1210.2201 1213.6989 1218.0575 1222.4163 1227.6688 1232.3438 1235.74 1244.6638 1248.1426 1251.5786 1254.9337 1258.33 1265.4937 1272.0112 1281.0037 1284.3999 1288.58 1293.2 1298.5074 1304.2 1309.59 1312.9449 1316.3412 1323.2849 1326.7637 1334.45 1339.7024 1344.2675 1349.5199 1356.5049 1360.9324 1364.3287 1371.2037 1376.5387 1380.8011 1387.855 1391.2512 1394.6062 1399.8573 1406.9386 1413.1123 1417.3748 1424.3323 1428.7461"
         y="656.89032"
         sodipodi:role="line"
         id="tspan3491">beam splitter will now travel diferent path lengths</tspan>
      <tspan
         x="1164.1713 1169.5751 1176.7388 1183.6001 1186.6801 1191.9312 1199.095 1205.9562 1209.0361 1215.7462 1222.5662 1225.6461 1232.4111 1236.9762 1243.7274 1250.5337 1257.3812 1262.7712 1266.1675 1273.2487 1278.9686 1282.0487 1286.4624 1293.0349 1303.5125 1308.9025 1311.9824 1315.4199 1318.8987 1324.9473 1331.8223 1336.2498 1339.3298 1344.6648 1349.0923 1352.1722 1356.4348 1363.4885 1368.8785 1371.9585 1378.8198 1384.2098 1388.5686 1394.1373 1399.5273 1403.8861 1410.4585 1414.4598 1417.2786 1420.3585 1424.3873 1428.8148"
         y="673.39026"
         sodipodi:role="line"
         id="tspan3493">and end up producing some light at the detector. It</tspan>
      <tspan
         x="1164.1713 1172.0226 1176.8213 1187.2025 1197.9413 1200.6226 1205.3113 1213.0388 1218.6199 1223.0337 1228.2861 1232.9612 1235.6425 1239.7949 1246.7799 1251.1387 1256.3912 1261.0662 1265.1086 1270.3612 1274.9261 1281.4987 1291.9762 1297.3662 1301.725 1306.9774 1311.6525 1314.3337 1324.2887 1328.9087 1334.2162 1339.9362 1343.4149 1347.705 1353.0399 1357.3025 1360.7811 1367.3536 1374.3524 1379.9611 1383.151 1387.0437 1395.8987 1401.2048 1406.8987 1412.2887 1414.97 1425.7086 1432.3911 1436.8049 1442.0574 1447.3374 1452.9886 1458.3237 1462.6824 1469.2549 1474.4111 1480.1036 1484.7925 1487.4736 1490.9524 1495.3662"
         y="-5.3647041"
         sodipodi:role="line"
         id="tspan3495">LIGO (Laser Interferometer Gravitational-wave Observatory) is</tspan>
      <tspan
         x="1164.1713 1168.4338 1175.4875 1180.8776 1183.4076 1192.3175 1198.89 1203.4551 1206.8101 1213.4238 1215.1562 1219.5701 1222.1001 1225.4 1230.8038 1235.4788 1241.4999 1246.8899 1251.2212 1255.6487 1258.1787 1264.1049 1268.725 1274.0325 1279.7524 1283.2312 1287.5211 1292.8562 1297.1187 1300.5974 1307.1699 1314.1687 1319.7773 1323.1323 1325.6624 1334.5173 1339.8248 1345.5173 1350.9073 1353.4373 1360.1198 1366.8022 1371.2161 1376.4685 1381.7485 1387.3998 1392.7347 1397.0935 1403.666 1408.8223 1413.6898 1416.5085 1419.0386 1426.8898 1431.6886 1442.0698 1452.8086 1455.3385 1460.7836 1467.3561 1474.4236 1478.8373 1482.316 1486.6473 1490.9785 1495.3923"
         y="11.135297"
         sodipodi:role="line"
         id="tspan3497">the world’s largest gravitational wave observatory. LIGO consists</tspan>
      <tspan
         x="1164.1713 1170.7988 1174.8413 1180.8225 1185.4563 1194.3649 1200.9924 1206.9736 1210.2737 1215.8562 1220.2699 1225.5225 1230.1974 1236.1787 1239.575 1246.5599 1250.9187 1256.1711 1260.8462 1264.8887 1270.1412 1274.7062 1281.2787 1291.7562 1297.1462 1301.5049 1306.7574 1311.4324 1315.8462 1321.8274 1325.1824 1331.9337 1337.2687 1342.6023 1346.9624 1352.5298 1359.391 1365.3723 1369.6348 1376.6886 1383.316 1390.0673 1394.4811 1399.8848 1407.0486 1413.9098 1418.3236 1424.3048 1430.9323 1434.9749 1440.9561 1447.3635 1450.8423 1454.1973 1460.7684 1471.246 1476.636 1480.9946 1486.2472 1490.9221 1495.3359"
         y="27.635294"
         sodipodi:role="line"
         id="tspan3499">of two laser interferometers located thousands of kilometers</tspan>
      <tspan
         x="1164.1713 1169.5063 1176.3813 1181.785 1186.5837 1191.0114 1193.8301 1198.2163 1204.7888 1211.9525 1217.3425 1221.7288 1225.1237 1232.2875 1236.6737 1244.6349 1248.1136 1253.8336 1257.2299 1264.3112 1270.4025 1274.7336 1279.0924 1285.6649 1292.8286 1295.6475 1300.0337 1307.8987 1314.5261 1321.4562 1324.9349 1329.3486 1332.8274 1338.2312 1345.23 1350.6887 1355.075 1360.4786 1367.6425 1374.5037 1378.8899 1383.1525 1390.2062 1395.5962 1399.9824 1406.6099 1410.8724 1417.9261 1423.1787 1427.8536 1432.2399 1435.6362 1442.7999 1447.1862 1457.9111 1463.3149 1470.3961 1474.4387 1481.0112 1485.5762 1492.5598 1495.3785"
         y="44.1353"
         sodipodi:role="line"
         id="tspan3501">apart, one in Livingston, Louisiana and the other in Hanford,</tspan>
      <tspan
         x="1164.1713 1175.8864 1181.4688 1185.8826 1193.0188 1196.415 1203.4963 1209.6687 1214.0275 1220.6 1227.9011 1230.72 1236.323 1244.173 1248.9717 1259.3529 1270.0917 1275.6948 1282.446 1286.8597 1292.2498 1296.6636 1302.2653 1306.5278 1313.5815 1318.9716 1324.5747 1331.4497 1338.2697 1343.9622 1348.376 1351.8547 1357.1884 1362.7983 1366.1533 1371.755 1378.52 1383.0851 1389.6576 1396.6013 1401.8538 1406.6526 1410.915 1414.3938 1419.7838 1424.1975 1429.7993 1436.4268 1440.4694 1446.0724 1449.5099 1452.9886 1459.0374 1465.9124 1470.3398 1475.9429 1481.3467 1488.5104 1495.3717"
         y="60.635296"
         sodipodi:role="line"
         id="tspan3503">Washington. LIGO uses the physical properties of light and</tspan>
      <tspan
         x="1164.1713 1170.7988 1174.8413 1181.8401 1186.1025 1192.9775 1198.4363 1203.8813 1209.2712 1216.27 1219.7488 1224.0801 1228.4938 1233.8838 1237.1824 1241.225 1248.2236 1252.5824 1259.21 1266.2087 1273.0699 1278.46 1282.8187 1288.3875 1293.7775 1298.205 1305.2037 1311.1299 1315.7499 1321.0574 1326.7775 1330.2562 1334.5461 1339.8812 1344.1437 1347.6224 1354.1949 1361.1937 1366.8022 1370.1573 1377.156 1386.0111 1391.3186 1397.0111 1402.401 1406.8973 1409.7161 1416.7148 1420.7435 1425.171 1432.1698 1441.0248 1446.6073 1451.021 1458.0198 1462.2534 1468.8672 1476.0309 1482.8922 1488.4609 1495.3221"
         y="77.135292"
         sodipodi:role="line"
         id="tspan3505">of space itself to detect gravitational waves. It was funded</tspan>
      <tspan
         x="1164.1713 1170.7712 1176.4639 1182.5963 1186.8588 1193.9126 1199.3026 1205.4351 1215.8301 1222.3337 1228.4663 1238.5327 1243.8663 1248.1288 1251.6075 1258.1801 1265.1788 1270.7888 1274.1438 1280.2762 1286.9451 1292.3351 1295.8138 1301.0663 1308.2301 1313.675 1319.0651 1325.1975 1332.0312 1338.6588 1345.2726 1352.4363 1359.2426 1364.5775 1368.8401 1372.3188 1378.8914 1386.0551 1388.8738 1395.0063 1400.41 1407.5739 1414.4351 1420.5675 1424.0463 1428.4738 1434.6063 1438.0851 1442.4988 1448.6313 1458.9438 1464.3475 1471.3463 1476.9701 1482.9926 1488.5599 1495.4211"
         y="93.6353"
         sodipodi:role="line"
         id="tspan3507">by the US National Science Foundation, and it is managed</tspan>
    </text>
    <g
       id="g4749"
       transform="translate(-4.8208611,46.130807)">
      <g
         style="stroke:#ffffff"
         transform="matrix(1.5695472,0,0,-1.5695472,70.830636,161.23309)"
         id="g3531">
        <path
           inkscape:connector-curvature="0"
           id="path3533-3"
           style="fill:none;stroke:#ffffff;stroke-width:0.75400001;stroke-linecap:round;stroke-linejoin:miter;stroke-miterlimit:10;stroke-dasharray:none;stroke-opacity:1"
           d="m 0,0 0,-40.951 185.581,0" />
      </g>
      <g
         style="fill:#ffffff;stroke:#ffffff"
         transform="matrix(1.5695472,0,0,-1.5695472,67.802792,165.4029)"
         id="g3535">
        <path
           inkscape:connector-curvature="0"
           id="path3537"
           style="fill:#ffffff;stroke:#ffffff;stroke-width:0.75400001;stroke-linecap:round;stroke-linejoin:miter;stroke-miterlimit:10;stroke-dasharray:none;stroke-opacity:1"
           d="M 0,0 3.77,0" />
      </g>
      <g
         style="fill:#ffffff;stroke:#ffffff"
         transform="matrix(1.5695472,0,0,-1.5695472,67.802792,176.44874)"
         id="g3539">
        <path
           inkscape:connector-curvature="0"
           id="path3541"
           style="fill:#ffffff;stroke:#ffffff;stroke-width:0.75400001;stroke-linecap:round;stroke-linejoin:miter;stroke-miterlimit:10;stroke-dasharray:none;stroke-opacity:1"
           d="M 0,0 3.77,0" />
      </g>
      <g
         style="fill:#ffffff;stroke:#ffffff"
         transform="matrix(1.5695472,0,0,-1.5695472,67.802792,210.17722)"
         id="g3543">
        <path
           inkscape:connector-curvature="0"
           id="path3545"
           style="fill:#ffffff;stroke:#ffffff;stroke-width:0.75400001;stroke-linecap:round;stroke-linejoin:miter;stroke-miterlimit:10;stroke-dasharray:none;stroke-opacity:1"
           d="M 0,0 3.77,0" />
      </g>
      <g
         style="fill:#ffffff;stroke:#ffffff"
         transform="matrix(1.5695472,0,0,-1.5695472,67.802792,199.33008)"
         id="g3547">
        <path
           inkscape:connector-curvature="0"
           id="path3549"
           style="fill:#ffffff;stroke:#ffffff;stroke-width:0.75400001;stroke-linecap:round;stroke-linejoin:miter;stroke-miterlimit:10;stroke-dasharray:none;stroke-opacity:1"
           d="M 0,0 3.77,0" />
      </g>
      <g
         style="fill:#ffffff;stroke:#ffffff"
         transform="matrix(1.5695472,0,0,-1.5695472,67.802792,221.61922)"
         id="g3551">
        <path
           inkscape:connector-curvature="0"
           id="path3553-5"
           style="fill:#ffffff;stroke:#ffffff;stroke-width:0.75400001;stroke-linecap:round;stroke-linejoin:miter;stroke-miterlimit:10;stroke-dasharray:none;stroke-opacity:1"
           d="M 0,0 3.77,0" />
      </g>
      <g
         style="fill:#ffffff;stroke:#ffffff"
         transform="matrix(1.5695472,0,0,-1.5695472,67.802792,187.88934)"
         id="g3555">
        <path
           inkscape:connector-curvature="0"
           id="path3557"
           style="fill:#ffffff;stroke:#ffffff;stroke-width:0.75400001;stroke-linecap:round;stroke-linejoin:miter;stroke-miterlimit:10;stroke-dasharray:none;stroke-opacity:1"
           d="M 0,0 3.77,0" />
      </g>
      <g
         style="stroke:#ffffff"
         transform="matrix(1.5695472,0,0,-1.5695472,70.830636,250.15987)"
         id="g3559">
        <path
           inkscape:connector-curvature="0"
           id="path3561"
           style="fill:none;stroke:#ffffff;stroke-width:0.75400001;stroke-linecap:round;stroke-linejoin:miter;stroke-miterlimit:10;stroke-dasharray:none;stroke-opacity:1"
           d="m 0,0 0,-40.953 185.581,0" />
      </g>
      <g
         style="stroke:#ffffff"
         transform="matrix(1.5695472,0,0,-1.5695472,67.802792,254.3322)"
         id="g3563">
        <path
           inkscape:connector-curvature="0"
           id="path3565"
           style="fill:none;stroke:#ffffff;stroke-width:0.75400001;stroke-linecap:round;stroke-linejoin:miter;stroke-miterlimit:10;stroke-dasharray:none;stroke-opacity:1"
           d="M 0,0 3.77,0" />
      </g>
      <g
         style="stroke:#ffffff"
         transform="matrix(1.5695472,0,0,-1.5695472,67.802792,265.37789)"
         id="g3567">
        <path
           inkscape:connector-curvature="0"
           id="path3569-6"
           style="fill:none;stroke:#ffffff;stroke-width:0.75400001;stroke-linecap:round;stroke-linejoin:miter;stroke-miterlimit:10;stroke-dasharray:none;stroke-opacity:1"
           d="M 0,0 3.77,0" />
      </g>
      <g
         style="stroke:#ffffff"
         transform="matrix(1.5695472,0,0,-1.5695472,67.802792,299.10652)"
         id="g3571">
        <path
           inkscape:connector-curvature="0"
           id="path3573"
           style="fill:none;stroke:#ffffff;stroke-width:0.75400001;stroke-linecap:round;stroke-linejoin:miter;stroke-miterlimit:10;stroke-dasharray:none;stroke-opacity:1"
           d="M 0,0 3.77,0" />
      </g>
      <g
         style="stroke:#ffffff"
         transform="matrix(1.5695472,0,0,-1.5695472,67.802792,288.25702)"
         id="g3575">
        <path
           inkscape:connector-curvature="0"
           id="path3577"
           style="fill:none;stroke:#ffffff;stroke-width:0.75400001;stroke-linecap:round;stroke-linejoin:miter;stroke-miterlimit:10;stroke-dasharray:none;stroke-opacity:1"
           d="M 0,0 3.77,0" />
      </g>
      <g
         style="stroke:#ffffff"
         transform="matrix(1.5695472,0,0,-1.5695472,67.802792,310.54836)"
         id="g3579">
        <path
           inkscape:connector-curvature="0"
           id="path3581"
           style="fill:none;stroke:#ffffff;stroke-width:0.75400001;stroke-linecap:round;stroke-linejoin:miter;stroke-miterlimit:10;stroke-dasharray:none;stroke-opacity:1"
           d="M 0,0 3.77,0" />
      </g>
      <g
         style="stroke:#ffffff"
         transform="matrix(1.5695472,0,0,-1.5695472,67.802792,276.81754)"
         id="g3583">
        <path
           inkscape:connector-curvature="0"
           id="path3585"
           style="fill:none;stroke:#ffffff;stroke-width:0.75400001;stroke-linecap:round;stroke-linejoin:miter;stroke-miterlimit:10;stroke-dasharray:none;stroke-opacity:1"
           d="M 0,0 3.77,0" />
      </g>
      <text
         y="167.76978"
         x="58.337757"
         id="text3587"
         style="font-variant:normal;font-weight:normal;font-stretch:normal;font-size:7.10094595px;font-family:'HAHICJ +ArialMT';-inkscape-font-specification:ArialMT;writing-mode:lr-tb;fill:#ffffff;fill-opacity:1;fill-rule:nonzero;stroke:none">
        <tspan
           style="fill:#ffffff"
           id="tspan3589"
           y="167.76978"
           x="58.337757">1</tspan>
        <tspan
           id="tspan3591"
           sodipodi:role="line"
           y="179.1313"
           x="52.415627 56.363716 58.337757">0.6</tspan>
        <tspan
           id="tspan3593"
           sodipodi:role="line"
           y="190.4928"
           x="52.415627 56.363716 58.337757">0.2</tspan>
        <tspan
           id="tspan3595"
           sodipodi:role="line"
           y="201.85431"
           x="50.051041 52.415627 56.363716 58.337757">-0.2</tspan>
        <tspan
           id="tspan3597"
           sodipodi:role="line"
           y="213.21584"
           x="50.051041 52.415627 56.363716 58.337757">-0.6</tspan>
        <tspan
           id="tspan3599"
           sodipodi:role="line"
           y="224.57735"
           x="55.973164 58.337757">-1</tspan>
        <tspan
           style="fill:#ffffff"
           id="tspan3601"
           y="255.51617"
           x="57.940155">1</tspan>
        <tspan
           id="tspan3603"
           sodipodi:role="line"
           y="266.87769"
           x="52.017876 55.966114 57.940155">0.6</tspan>
        <tspan
           id="tspan3605"
           sodipodi:role="line"
           y="278.2392"
           x="52.017876 55.966114 57.940155">0.2</tspan>
        <tspan
           id="tspan3607"
           sodipodi:role="line"
           y="289.60071"
           x="49.65329 52.017876 55.966114 57.940155">-0.2</tspan>
        <tspan
           id="tspan3609"
           sodipodi:role="line"
           y="300.96222"
           x="49.65329 52.017876 55.966114 57.940155">-0.6</tspan>
        <tspan
           id="tspan3611"
           sodipodi:role="line"
           y="312.32373"
           x="55.575569 57.940155">-1</tspan>
      </text>
      <g
         style="stroke:#ffffff"
         transform="matrix(1.5695472,0,0,-1.5695472,67.8701,344.87749)"
         id="g3613">
        <path
           inkscape:connector-curvature="0"
           id="path3615"
           style="fill:none;stroke:#ffffff;stroke-width:0.75400001;stroke-linecap:round;stroke-linejoin:miter;stroke-miterlimit:10;stroke-dasharray:none;stroke-opacity:1"
           d="m 0,0 0,-71.037 185.582,0" />
      </g>
      <g
         style="fill:#ffffff;stroke:#ffffff"
         transform="matrix(1.5695472,0,0,-1.5695472,64.844883,349.04747)"
         id="g3617">
        <path
           inkscape:connector-curvature="0"
           id="path3619"
           style="fill:#ffffff;stroke:#ffffff;stroke-width:0.75400001;stroke-linecap:round;stroke-linejoin:miter;stroke-miterlimit:10;stroke-dasharray:none;stroke-opacity:1"
           d="M 0,0 3.771,0" />
      </g>
      <g
         style="fill:#ffffff;stroke:#ffffff"
         transform="matrix(1.5695472,0,0,-1.5695472,64.844883,426.90313)"
         id="g3621">
        <path
           inkscape:connector-curvature="0"
           id="path3623"
           style="fill:#ffffff;stroke:#ffffff;stroke-width:0.75400001;stroke-linecap:round;stroke-linejoin:miter;stroke-miterlimit:10;stroke-dasharray:none;stroke-opacity:1"
           d="M 0,0 3.771,0" />
      </g>
      <g
         style="fill:#ffffff;stroke:#ffffff"
         transform="matrix(1.5695472,0,0,-1.5695472,64.844883,400.95083)"
         id="g3625">
        <path
           inkscape:connector-curvature="0"
           id="path3627"
           style="fill:#ffffff;stroke:#ffffff;stroke-width:0.75400001;stroke-linecap:round;stroke-linejoin:miter;stroke-miterlimit:10;stroke-dasharray:none;stroke-opacity:1"
           d="M 0,0 3.771,0" />
      </g>
      <g
         style="fill:#ffffff;stroke:#ffffff"
         transform="matrix(1.5695472,0,0,-1.5695472,64.844883,452.85419)"
         id="g3629">
        <path
           inkscape:connector-curvature="0"
           id="path3631"
           style="fill:#ffffff;stroke:#ffffff;stroke-width:0.75400001;stroke-linecap:round;stroke-linejoin:miter;stroke-miterlimit:10;stroke-dasharray:none;stroke-opacity:1"
           d="M 0,0 3.771,0" />
      </g>
      <g
         style="fill:#ffffff;stroke:#ffffff"
         transform="matrix(1.5695472,0,0,-1.5695472,64.844883,374.99851)"
         id="g3633">
        <path
           inkscape:connector-curvature="0"
           id="path3635"
           style="fill:#ffffff;stroke:#ffffff;stroke-width:0.75400001;stroke-linecap:round;stroke-linejoin:miter;stroke-miterlimit:10;stroke-dasharray:none;stroke-opacity:1"
           d="M 0,0 3.771,0" />
      </g>
      <text
         y="350.0322"
         x="54.393341"
         id="text3637"
         style="font-variant:normal;font-weight:normal;font-stretch:normal;font-size:7.10094595px;font-family:'HAHICJ +ArialMT';-inkscape-font-specification:ArialMT;writing-mode:lr-tb;fill:#ffffff;fill-opacity:1;fill-rule:nonzero;stroke:none">
        <tspan
           style="fill:#ffffff"
           id="tspan3639"
           y="350.0322"
           x="54.393341">2</tspan>
        <tspan
           style="fill:#ffffff"
           id="tspan3641"
           y="375.78021"
           x="54.393341">1</tspan>
        <tspan
           style="fill:#ffffff"
           id="tspan3643"
           y="401.52826"
           x="54.393341">0</tspan>
        <tspan
           id="tspan3645"
           sodipodi:role="line"
           y="453.01721"
           x="52.028763 54.393341">-2</tspan>
        <tspan
           id="tspan3647"
           sodipodi:role="line"
           y="427.27631"
           x="52.028763 54.393341">-1</tspan>
      </text>
      <g
         style="stroke:#ffffff"
         transform="matrix(1.5695472,0,0,-1.5695472,457.30981,344.87749)"
         id="g3649">
        <path
           inkscape:connector-curvature="0"
           id="path3651"
           style="fill:none;stroke:#ffffff;stroke-width:0.75400001;stroke-linecap:round;stroke-linejoin:miter;stroke-miterlimit:10;stroke-dasharray:none;stroke-opacity:1"
           d="m 0,0 0,-71.037 185.582,0" />
      </g>
      <g
         style="stroke:#ffffff"
         transform="matrix(1.5695472,0,0,-1.5695472,454.28447,349.04747)"
         id="g3653">
        <path
           inkscape:connector-curvature="0"
           id="path3655"
           style="fill:none;stroke:#ffffff;stroke-width:0.75400001;stroke-linecap:round;stroke-linejoin:miter;stroke-miterlimit:10;stroke-dasharray:none;stroke-opacity:1"
           d="M 0,0 3.771,0" />
      </g>
      <g
         style="stroke:#ffffff"
         transform="matrix(1.5695472,0,0,-1.5695472,454.28447,426.90313)"
         id="g3657">
        <path
           inkscape:connector-curvature="0"
           id="path3659"
           style="fill:none;stroke:#ffffff;stroke-width:0.75400001;stroke-linecap:round;stroke-linejoin:miter;stroke-miterlimit:10;stroke-dasharray:none;stroke-opacity:1"
           d="M 0,0 3.771,0" />
      </g>
      <g
         style="stroke:#ffffff"
         transform="matrix(1.5695472,0,0,-1.5695472,454.28447,400.95083)"
         id="g3661">
        <path
           inkscape:connector-curvature="0"
           id="path3663"
           style="fill:none;stroke:#ffffff;stroke-width:0.75400001;stroke-linecap:round;stroke-linejoin:miter;stroke-miterlimit:10;stroke-dasharray:none;stroke-opacity:1"
           d="M 0,0 3.771,0" />
      </g>
      <g
         style="stroke:#ffffff"
         transform="matrix(1.5695472,0,0,-1.5695472,454.28447,452.85419)"
         id="g3665">
        <path
           inkscape:connector-curvature="0"
           id="path3667"
           style="fill:none;stroke:#ffffff;stroke-width:0.75400001;stroke-linecap:round;stroke-linejoin:miter;stroke-miterlimit:10;stroke-dasharray:none;stroke-opacity:1"
           d="M 0,0 3.771,0" />
      </g>
      <g
         style="stroke:#ffffff"
         transform="matrix(1.5695472,0,0,-1.5695472,454.28447,374.99851)"
         id="g3669">
        <path
           inkscape:connector-curvature="0"
           id="path3671"
           style="fill:none;stroke:#ffffff;stroke-width:0.75400001;stroke-linecap:round;stroke-linejoin:miter;stroke-miterlimit:10;stroke-dasharray:none;stroke-opacity:1"
           d="M 0,0 3.771,0" />
      </g>
      <text
         y="350.0322"
         x="443.83298"
         id="text3673"
         style="font-variant:normal;font-weight:normal;font-stretch:normal;font-size:7.10094595px;font-family:'HAHICJ +ArialMT';-inkscape-font-specification:ArialMT;writing-mode:lr-tb;fill:#ffffff;fill-opacity:1;fill-rule:nonzero;stroke:none">
        <tspan
           style="fill:#ffffff"
           id="tspan3675"
           y="350.0322"
           x="443.83298">2</tspan>
        <tspan
           style="fill:#ffffff"
           id="tspan3677"
           y="375.78021"
           x="443.83298">1</tspan>
        <tspan
           style="fill:#ffffff"
           id="tspan3679"
           y="401.52826"
           x="443.83298">0</tspan>
        <tspan
           id="tspan3681"
           sodipodi:role="line"
           y="453.01721"
           x="441.46841 443.83298">-2</tspan>
        <tspan
           id="tspan3683"
           sodipodi:role="line"
           y="427.27631"
           x="441.46841 443.83298">-1</tspan>
      </text>
      <g
         transform="matrix(1.5695472,0,0,-1.5695472,-88.347074,1210.453)"
         id="g3685">
        <g
           clip-path="url(#clipPath3689)"
           id="g3687">
          <g
             transform="translate(287.0678,660.4896)"
             id="g3693">
            <path
               inkscape:connector-curvature="0"
               id="path3695"
               style="fill:none;stroke:#be1e2d;stroke-width:1.13699996;stroke-linecap:round;stroke-linejoin:miter;stroke-miterlimit:10;stroke-dasharray:none;stroke-opacity:1"
               d="m 0,0 c -7.747,12.496 -14.307,-0.315 -16.444,-3.584 -2.136,-3.267 -10.682,-19.478 -10.682,-19.478 -9.049,-15.835 -16.336,-1.761 -17.97,0.88 -1.633,2.639 -1.131,1.005 -10.18,18.725 -9.048,17.718 -17.469,2.89 -18.851,0.502 -1.381,-2.387 -11.184,-20.359 -11.184,-20.359 -8.547,-14.579 -15.081,-3.016 -16.84,-0.503 -1.76,2.514 -11.562,20.988 -11.562,20.988 -9.425,17.468 -17.72,1.507 -18.725,-0.502 -1.005,-2.011 -11.184,-20.234 -11.184,-20.234 -8.923,-15.583 -16.321,-0.061 -17.326,1.573 -1.005,1.633 -9.997,18.743 -9.997,18.743 0,0 -5.998,13.496 -13.745,6.748" />
          </g>
          <g
             transform="translate(287.0678,603.5077)"
             id="g3697">
            <path
               inkscape:connector-curvature="0"
               id="path3699"
               style="fill:none;stroke:#1c75bc;stroke-width:1.13699996;stroke-linecap:round;stroke-linejoin:miter;stroke-miterlimit:10;stroke-dasharray:none;stroke-opacity:1"
               d="m 0,0 c -8.247,14.245 -16.279,-2.999 -16.279,-2.999 0,0 -9.09,-17.606 -10.095,-19.24 -1.007,-1.634 -8.172,-16.839 -17.094,-1.253 0,0 -10.18,18.221 -11.185,20.232 -1.004,2.01 -9.299,17.971 -18.726,0.502 0,0 -9.8,-18.474 -11.561,-20.987 -1.76,-2.513 -8.293,-14.075 -16.84,0.503 0,0 -9.802,17.971 -11.183,20.359 -1.384,2.388 -9.803,17.217 -18.852,-0.503 -9.047,-17.719 -8.546,-16.085 -10.18,-18.724 -1.632,-2.64 -8.921,-16.715 -17.969,-0.88 0,0 -8.548,16.211 -10.683,19.478 -2.136,3.267 -7.546,13.509 -14.544,5.762" />
          </g>
          <g
             transform="translate(287.4504,544.8173)"
             id="g3701">
            <path
               inkscape:connector-curvature="0"
               id="path3703"
               style="fill:none;stroke:#92278f;stroke-width:1.13699996;stroke-linecap:round;stroke-linejoin:miter;stroke-miterlimit:10;stroke-dasharray:none;stroke-opacity:1"
               d="m 0,0 c -8.347,28.5 -16.475,-6.002 -16.475,-6.002 0,0 -9.202,-35.226 -10.22,-38.491 -1.019,-3.273 -8.27,-33.693 -17.301,-2.512 0,0 -10.303,36.456 -11.32,40.48 -1.016,4.022 -9.413,35.959 -18.953,1.005 0,0 -9.92,-36.961 -11.702,-41.988 -1.781,-5.031 -8.394,-28.161 -17.044,1.004 0,0 -9.922,35.955 -11.32,40.736 -1.4,4.774 -9.923,34.444 -19.081,-1.009 -9.157,-35.45 -8.649,-32.182 -10.303,-37.459 -1.653,-5.283 -9.031,-33.444 -18.188,-1.762 0,0 -8.651,32.433 -10.813,38.97 -2.162,6.536 -7.637,27.03 -14.719,11.528" />
          </g>
        </g>
      </g>
      <g
         style="stroke:#ffffff"
         transform="matrix(1.5695472,0,0,-1.5695472,457.36682,162.26946)"
         id="g3713">
        <path
           inkscape:connector-curvature="0"
           id="path3715"
           style="fill:none;stroke:#ffffff;stroke-width:0.75099999;stroke-linecap:round;stroke-linejoin:miter;stroke-miterlimit:10;stroke-dasharray:none;stroke-opacity:1"
           d="m 0,0 0,-40.779 184.804,0" />
      </g>
      <g
         style="stroke:#ffffff"
         transform="matrix(1.5695472,0,0,-1.5695472,454.35417,166.42201)"
         id="g3717">
        <path
           inkscape:connector-curvature="0"
           id="path3719"
           style="fill:none;stroke:#ffffff;stroke-width:0.75099999;stroke-linecap:round;stroke-linejoin:miter;stroke-miterlimit:10;stroke-dasharray:none;stroke-opacity:1"
           d="M 0,0 3.754,0" />
      </g>
      <g
         style="stroke:#ffffff"
         transform="matrix(1.5695472,0,0,-1.5695472,454.35417,177.42109)"
         id="g3721">
        <path
           inkscape:connector-curvature="0"
           id="path3723"
           style="fill:none;stroke:#ffffff;stroke-width:0.75099999;stroke-linecap:round;stroke-linejoin:miter;stroke-miterlimit:10;stroke-dasharray:none;stroke-opacity:1"
           d="M 0,0 3.754,0" />
      </g>
      <g
         style="stroke:#ffffff"
         transform="matrix(1.5695472,0,0,-1.5695472,454.35417,211.00672)"
         id="g3725">
        <path
           inkscape:connector-curvature="0"
           id="path3727"
           style="fill:none;stroke:#ffffff;stroke-width:0.75099999;stroke-linecap:round;stroke-linejoin:miter;stroke-miterlimit:10;stroke-dasharray:none;stroke-opacity:1"
           d="M 0,0 3.754,0" />
      </g>
      <g
         style="stroke:#ffffff"
         transform="matrix(1.5695472,0,0,-1.5695472,454.35417,200.20621)"
         id="g3729">
        <path
           inkscape:connector-curvature="0"
           id="path3731"
           style="fill:none;stroke:#ffffff;stroke-width:0.75099999;stroke-linecap:round;stroke-linejoin:miter;stroke-miterlimit:10;stroke-dasharray:none;stroke-opacity:1"
           d="M 0,0 3.754,0" />
      </g>
      <g
         style="stroke:#ffffff"
         transform="matrix(1.5695472,0,0,-1.5695472,454.35417,222.40227)"
         id="g3733">
        <path
           inkscape:connector-curvature="0"
           id="path3735"
           style="fill:none;stroke:#ffffff;stroke-width:0.75099999;stroke-linecap:round;stroke-linejoin:miter;stroke-miterlimit:10;stroke-dasharray:none;stroke-opacity:1"
           d="M 0,0 3.754,0" />
      </g>
      <g
         style="stroke:#ffffff"
         transform="matrix(1.5695472,0,0,-1.5695472,454.35417,188.81302)"
         id="g3737">
        <path
           inkscape:connector-curvature="0"
           id="path3739"
           style="fill:none;stroke:#ffffff;stroke-width:0.75099999;stroke-linecap:round;stroke-linejoin:miter;stroke-miterlimit:10;stroke-dasharray:none;stroke-opacity:1"
           d="M 0,0 3.754,0" />
      </g>
      <g
         style="stroke:#ffffff"
         transform="matrix(1.5695472,0,0,-1.5695472,457.36682,250.82348)"
         id="g3741">
        <path
           inkscape:connector-curvature="0"
           id="path3743"
           style="fill:none;stroke:#ffffff;stroke-width:0.75099999;stroke-linecap:round;stroke-linejoin:miter;stroke-miterlimit:10;stroke-dasharray:none;stroke-opacity:1"
           d="m 0,0 0,-40.781 184.804,0" />
      </g>
      <g
         style="stroke:#ffffff"
         transform="matrix(1.5695472,0,0,-1.5695472,454.35417,254.97713)"
         id="g3745">
        <path
           inkscape:connector-curvature="0"
           id="path3747"
           style="fill:none;stroke:#ffffff;stroke-width:0.75099999;stroke-linecap:round;stroke-linejoin:miter;stroke-miterlimit:10;stroke-dasharray:none;stroke-opacity:1"
           d="M 0,0 3.754,0" />
      </g>
      <g
         style="stroke:#ffffff"
         transform="matrix(1.5695472,0,0,-1.5695472,454.35417,265.97636)"
         id="g3749">
        <path
           inkscape:connector-curvature="0"
           id="path3751"
           style="fill:none;stroke:#ffffff;stroke-width:0.75099999;stroke-linecap:round;stroke-linejoin:miter;stroke-miterlimit:10;stroke-dasharray:none;stroke-opacity:1"
           d="M 0,0 3.754,0" />
      </g>
      <g
         style="stroke:#ffffff"
         transform="matrix(1.5695472,0,0,-1.5695472,454.35417,299.5631)"
         id="g3753">
        <path
           inkscape:connector-curvature="0"
           id="path3755"
           style="fill:none;stroke:#ffffff;stroke-width:0.75099999;stroke-linecap:round;stroke-linejoin:miter;stroke-miterlimit:10;stroke-dasharray:none;stroke-opacity:1"
           d="M 0,0 3.754,0" />
      </g>
      <g
         style="stroke:#ffffff"
         transform="matrix(1.5695472,0,0,-1.5695472,454.35417,288.76021)"
         id="g3757">
        <path
           inkscape:connector-curvature="0"
           id="path3759"
           style="fill:none;stroke:#ffffff;stroke-width:0.75099999;stroke-linecap:round;stroke-linejoin:miter;stroke-miterlimit:10;stroke-dasharray:none;stroke-opacity:1"
           d="M 0,0 3.754,0" />
      </g>
      <g
         style="stroke:#ffffff"
         transform="matrix(1.5695472,0,0,-1.5695472,454.35417,310.95739)"
         id="g3761">
        <path
           inkscape:connector-curvature="0"
           id="path3763"
           style="fill:none;stroke:#ffffff;stroke-width:0.75099999;stroke-linecap:round;stroke-linejoin:miter;stroke-miterlimit:10;stroke-dasharray:none;stroke-opacity:1"
           d="M 0,0 3.754,0" />
      </g>
      <g
         style="stroke:#ffffff"
         transform="matrix(1.5695472,0,0,-1.5695472,454.35417,277.36702)"
         id="g3765">
        <path
           inkscape:connector-curvature="0"
           id="path3767"
           style="fill:none;stroke:#ffffff;stroke-width:0.75099999;stroke-linecap:round;stroke-linejoin:miter;stroke-miterlimit:10;stroke-dasharray:none;stroke-opacity:1"
           d="M 0,0 3.754,0" />
      </g>
      <text
         y="168.77744"
         x="444.92584"
         id="text3769"
         style="font-variant:normal;font-weight:normal;font-stretch:normal;font-size:7.07112408px;font-family:'HAHICJ +ArialMT';-inkscape-font-specification:ArialMT;writing-mode:lr-tb;fill:#ffffff;fill-opacity:1;fill-rule:nonzero;stroke:none">
        <tspan
           style="fill:#ffffff"
           id="tspan3771"
           y="168.77744"
           x="444.92584">1</tspan>
        <tspan
           id="tspan3773"
           sodipodi:role="line"
           y="180.09122"
           x="439.02853 442.96008 444.92584">0.6</tspan>
        <tspan
           id="tspan3775"
           sodipodi:role="line"
           y="191.40503"
           x="439.02853 442.96008 444.92584">0.2</tspan>
        <tspan
           id="tspan3777"
           sodipodi:role="line"
           y="202.71883"
           x="436.67377 439.02853 442.96008 444.92584">-0.2</tspan>
        <tspan
           id="tspan3779"
           sodipodi:role="line"
           y="214.03262"
           x="436.67377 439.02853 442.96008 444.92584">-0.6</tspan>
        <tspan
           id="tspan3781"
           sodipodi:role="line"
           y="225.34642"
           x="442.57123 444.92584">-1</tspan>
        <tspan
           style="fill:#ffffff"
           id="tspan3783"
           y="256.15533"
           x="444.52979">1</tspan>
        <tspan
           id="tspan3785"
           sodipodi:role="line"
           y="267.46912"
           x="438.63248 442.56403 444.52979">0.6</tspan>
        <tspan
           id="tspan3787"
           sodipodi:role="line"
           y="278.7829"
           x="438.63248 442.56403 444.52979">0.2</tspan>
        <tspan
           id="tspan3789"
           sodipodi:role="line"
           y="290.09671"
           x="436.27786 438.63248 442.56403 444.52979">-0.2</tspan>
        <tspan
           id="tspan3791"
           sodipodi:role="line"
           y="301.41052"
           x="436.27786 438.63248 442.56403 444.52979">-0.6</tspan>
        <tspan
           id="tspan3793"
           sodipodi:role="line"
           y="312.7243"
           x="442.17517 444.52979">-1</tspan>
      </text>
      <g
         transform="matrix(1.5695472,0,0,-1.5695472,-88.347074,1210.453)"
         id="g3795">
        <g
           clip-path="url(#clipPath3799)"
           id="g3797">
          <g
             transform="translate(348.8953,649.9086)"
             id="g3803">
            <path
               inkscape:connector-curvature="0"
               id="path3805"
               style="fill:none;stroke:#be1e2d;stroke-width:1.13699996;stroke-linecap:round;stroke-linejoin:miter;stroke-miterlimit:10;stroke-dasharray:none;stroke-opacity:1"
               d="m 0,0 c 0,0 5.825,-11.009 6.827,-12.635 1,-1.627 8.508,-16.395 17.394,-0.877 0,0 10.136,18.147 11.137,20.149 1.002,2.001 9.262,17.894 18.647,0.5 0,0 9.76,-18.397 11.513,-20.898 1.753,-2.504 8.259,-14.017 16.77,0.5 0,0 9.762,17.896 11.137,20.273 1.377,2.377 9.762,17.145 18.771,-0.5 9.011,-17.646 8.511,-16.019 10.138,-18.646 1.627,-2.63 8.885,-16.645 17.895,-0.877 0,0 8.511,16.144 10.637,19.398 2.128,3.254 9.01,17.019 18.397,1.501 0,0 10.544,-20.327 10.919,-21.077 0,0 3.485,-4.73 4.48,-5.227" />
          </g>
          <g
             transform="translate(348.6466,588.1882)"
             id="g3807">
            <path
               inkscape:connector-curvature="0"
               id="path3809"
               style="fill:none;stroke:#1c75bc;stroke-width:1.13699996;stroke-linecap:round;stroke-linejoin:miter;stroke-miterlimit:10;stroke-dasharray:none;stroke-opacity:1"
               d="m 0,0 c 0.375,0.752 7.069,12.937 7.069,12.937 9.387,15.518 16.269,1.752 18.397,-1.502 2.126,-3.254 10.639,-19.396 10.639,-19.396 9.009,-15.769 16.267,-1.753 17.893,0.876 1.627,2.627 1.128,1.001 10.137,18.645 9.01,17.646 17.395,2.879 18.773,0.502 1.375,-2.379 11.136,-20.274 11.136,-20.274 8.511,-14.516 15.018,-3.004 16.769,-0.501 1.753,2.503 11.513,20.899 11.513,20.899 9.388,17.396 17.647,1.501 18.648,-0.5 1.001,-2.003 11.138,-20.148 11.138,-20.148 8.884,-15.519 16.02,-0.378 17.021,1.249 1.001,1.627 10.054,19.159 10.054,19.159 0,0 3.732,6.471 5.475,6.969" />
          </g>
        </g>
      </g>
      <g
         transform="matrix(1.5695472,0,0,-1.5695472,459.26057,400.9218)"
         id="g3827">
        <path
           inkscape:connector-curvature="0"
           id="path3829"
           style="fill:none;stroke:#92278f;stroke-width:1.13699996;stroke-linecap:round;stroke-linejoin:miter;stroke-miterlimit:10;stroke-dasharray:none;stroke-opacity:1"
           d="M 0,0 180.374,0" />
      </g>
      <text
         sodipodi:linespacing="125%"
         id="text4691"
         y="140"
         x="217.5"
         style="color:#000000;font-style:normal;font-variant:normal;font-weight:normal;font-stretch:normal;font-size:35px;line-height:125%;font-family:'Fira Sans';-inkscape-font-specification:'Fira Sans';text-align:center;writing-mode:lr-tb;text-anchor:middle;clip-rule:nonzero;display:inline;overflow:visible;visibility:visible;opacity:1;isolation:auto;mix-blend-mode:normal;color-interpolation:sRGB;color-interpolation-filters:linearRGB;solid-color:#000000;solid-opacity:1;fill:#ffffff;fill-opacity:1;fill-rule:nonzero;stroke:#ffffff;stroke-width:1;stroke-linecap:butt;stroke-linejoin:miter;stroke-miterlimit:10.43299961;stroke-dasharray:none;stroke-dashoffset:0;stroke-opacity:1;color-rendering:auto;image-rendering:auto;shape-rendering:auto;text-rendering:auto;enable-background:accumulate"
         xml:space="preserve"><tspan
           style="font-style:normal;font-variant:normal;font-weight:normal;font-stretch:normal;font-size:17.5px;font-family:'Fira Mono';-inkscape-font-specification:'Fira Mono'"
           y="140"
           x="217.5"
           id="tspan4693"
           sodipodi:role="line">Diferença de fase de 0 graus</tspan></text>
      <text
         sodipodi:linespacing="125%"
         id="text4691-3"
         y="142.18126"
         x="603.46991"
         style="color:#000000;font-style:normal;font-variant:normal;font-weight:normal;font-stretch:normal;font-size:35px;line-height:125%;font-family:'Fira Sans';-inkscape-font-specification:'Fira Sans';text-align:center;writing-mode:lr-tb;text-anchor:middle;clip-rule:nonzero;display:inline;overflow:visible;visibility:visible;opacity:1;isolation:auto;mix-blend-mode:normal;color-interpolation:sRGB;color-interpolation-filters:linearRGB;solid-color:#000000;solid-opacity:1;fill:#ffffff;fill-opacity:1;fill-rule:nonzero;stroke:#ffffff;stroke-width:1;stroke-linecap:butt;stroke-linejoin:miter;stroke-miterlimit:10.43299961;stroke-dasharray:none;stroke-dashoffset:0;stroke-opacity:1;color-rendering:auto;image-rendering:auto;shape-rendering:auto;text-rendering:auto;enable-background:accumulate"
         xml:space="preserve"><tspan
           style="font-style:normal;font-variant:normal;font-weight:normal;font-stretch:normal;font-size:17.5px;font-family:'Fira Mono';-inkscape-font-specification:'Fira Mono'"
           y="142.18126"
           x="603.46991"
           id="tspan4693-6"
           sodipodi:role="line">Diferença de fase de 180 graus</tspan></text>
      <text
         sodipodi:linespacing="125%"
         id="text4691-7"
         y="333.01459"
         x="218.46992"
         style="color:#000000;font-style:normal;font-variant:normal;font-weight:normal;font-stretch:normal;font-size:35px;line-height:125%;font-family:'Fira Sans';-inkscape-font-specification:'Fira Sans';text-align:center;writing-mode:lr-tb;text-anchor:middle;clip-rule:nonzero;display:inline;overflow:visible;visibility:visible;opacity:1;isolation:auto;mix-blend-mode:normal;color-interpolation:sRGB;color-interpolation-filters:linearRGB;solid-color:#000000;solid-opacity:1;fill:#ffffff;fill-opacity:1;fill-rule:nonzero;stroke:#ffffff;stroke-width:1;stroke-linecap:butt;stroke-linejoin:miter;stroke-miterlimit:10.43299961;stroke-dasharray:none;stroke-dashoffset:0;stroke-opacity:1;color-rendering:auto;image-rendering:auto;shape-rendering:auto;text-rendering:auto;enable-background:accumulate"
         xml:space="preserve"><tspan
           style="font-style:normal;font-variant:normal;font-weight:normal;font-stretch:normal;font-size:17.5px;font-family:'Fira Mono';-inkscape-font-specification:'Fira Mono';fill:#ff6600;stroke:#ff6600"
           y="333.01459"
           x="218.46992"
           id="tspan4693-5"
           sodipodi:role="line">Resultado</tspan></text>
      <text
         sodipodi:linespacing="125%"
         id="text4691-7-3"
         y="333.11542"
         x="607.24286"
         style="color:#000000;font-style:normal;font-variant:normal;font-weight:normal;font-stretch:normal;font-size:35px;line-height:125%;font-family:'Fira Sans';-inkscape-font-specification:'Fira Sans';text-align:center;writing-mode:lr-tb;text-anchor:middle;clip-rule:nonzero;display:inline;overflow:visible;visibility:visible;opacity:1;isolation:auto;mix-blend-mode:normal;color-interpolation:sRGB;color-interpolation-filters:linearRGB;solid-color:#000000;solid-opacity:1;fill:#ffffff;fill-opacity:1;fill-rule:nonzero;stroke:#ffffff;stroke-width:1;stroke-linecap:butt;stroke-linejoin:miter;stroke-miterlimit:10.43299961;stroke-dasharray:none;stroke-dashoffset:0;stroke-opacity:1;color-rendering:auto;image-rendering:auto;shape-rendering:auto;text-rendering:auto;enable-background:accumulate"
         xml:space="preserve"><tspan
           style="font-style:normal;font-variant:normal;font-weight:normal;font-stretch:normal;font-size:17.5px;font-family:'Fira Mono';-inkscape-font-specification:'Fira Mono';fill:#ff6600;stroke:#ff6600"
           y="333.11542"
           x="607.24286"
           id="tspan4693-5-5"
           sodipodi:role="line">Resultado</tspan></text>
    </g>
  </g>
</svg>
